<?xml version="1.0" standalone="no"?>
<!DOCTYPE svg PUBLIC "-//W3C//DTD SVG 1.1//EN" "http://www.w3.org/Graphics/SVG/1.1/DTD/svg11.dtd" >
<svg xmlns="http://www.w3.org/2000/svg">
<metadata>
Created by FontPrep 20130207 at Wed Oct 22 14:45:21 2014
 By Tim Kloote
HTF Gotham  Copr. 2000 The Hoefler Type Foundry, Inc. Info: www.typography.com
</metadata>
<defs>
<font id="0fbe3a09622d8fb1f474f00917396ba1" horiz-adv-x='1024' >
  <font-face 
    font-family="GothamMedium"
    font-weight="500"
    font-stretch="normal"
    units-per-em="2048"
    panose-1="2 0 6 3 3 0 0 2 0 4"
    ascent="1638"
    descent="-410"
    x-height="1081"
    cap-height="1434"
    bbox="-143 -338.014 2417 1888"
    underline-thickness="40"
    underline-position="-231"
    unicode-range="U+0020-FB02"
  />
<missing-glyph 
 />
    <glyph glyph-name="fi" unicode="fi" horiz-adv-x="1355" 
d="M930 1483h266v-236h-266v236zM598 1296q-143 0 -143 -163v-60h286v-205h-282v-868h-248v868h-137v207h137v78q0 180 87 267t245 87q104 0 200 -28v-209q-80 26 -145 26zM940 1081h248v-1081h-248v1081z" />
    <glyph glyph-name="fl" unicode="fl" horiz-adv-x="1355" 
d="M598 1296q-143 0 -143 -163v-60h286v-205h-282v-868h-248v868h-137v207h137v78q0 180 87 267t245 87q104 0 200 -28v-209q-80 26 -145 26zM940 1495h248v-1495h-248v1495z" />
    <glyph glyph-name=".notdef" 
 />
    <glyph glyph-name=".null" horiz-adv-x="0" 
 />
    <glyph glyph-name="nonmarkingreturn" horiz-adv-x="614" 
 />
    <glyph glyph-name="space" unicode=" " horiz-adv-x="614" 
 />
    <glyph glyph-name="exclam" unicode="!" horiz-adv-x="618" 
d="M164 1434h291v-72l-76 -909h-137l-78 909v72zM174 281h272v-281h-272v281z" />
    <glyph glyph-name="quotedbl" unicode="&#x22;" horiz-adv-x="997" 
d="M901 1434v-11l-201 -602h-129l50 613h280zM451 1434v-11l-199 -602h-129l47 613h281z" />
    <glyph glyph-name="numbersign" unicode="#" horiz-adv-x="1433" 
d="M80 330v213h221l59 356h-204v213h241l56 322h219l-56 -322h336l54 322h219l-56 -322h183v-213h-219l-60 -356h205v-213h-242l-57 -330h-219l57 330h-336l-55 -330h-219l57 330h-184zM854 543l61 356h-335l-62 -356h336z" />
    <glyph glyph-name="dollar" unicode="$" horiz-adv-x="1314" 
d="M154 1038v4q0 166 117 270t313 122v118h178v-122q207 -26 385 -156l-115 -193q-133 100 -278 131v-389q233 -59 338.5 -158.5t105.5 -263.5v-4q0 -165 -120.5 -272t-315.5 -123v-203h-178v205q-270 32 -484 203l131 186q180 -147 361 -176v401q-225 57 -331.5 152.5
t-106.5 267.5zM395 1057v-4q0 -63 39 -107.5t158 -79.5v361q-98 -8 -147.5 -55.5t-49.5 -114.5zM956 383v4q0 68 -42 113t-160 80v-371q98 8 150 54t52 120z" />
    <glyph glyph-name="percent" unicode="%" horiz-adv-x="1738" 
d="M98 1079v4q0 153 96.5 260t244.5 107t241.5 -107t93.5 -256v-4q0 -151 -96 -258.5t-243.5 -107.5t-242 106t-94.5 256zM1292 1434h203l-1049 -1434h-202zM965 346v4q0 153 96.5 260t243.5 107t241 -107t94 -256v-4q0 -153 -96 -259.5t-244 -106.5t-241.5 106.5
t-93.5 255.5zM439 874q71 0 112 60.5t41 144.5v4q0 86 -44 147.5t-115 61.5t-111.5 -60.5t-40.5 -144.5v-4q0 -88 43.5 -148.5t114.5 -60.5zM1306 141q71 0 111.5 60.5t40.5 144.5v4q0 86 -44 147.5t-115 61.5t-111.5 -60.5t-40.5 -144.5v-4q0 -88 44 -148.5t115 -60.5z" />
    <glyph glyph-name="ampersand" unicode="&#x26;" horiz-adv-x="1425" 
d="M80 389v4q0 269 305 402q-119 152 -119 299v4q0 148 113.5 254t290.5 106q176 0 282.5 -99t106.5 -247v-4q0 -257 -316 -373l246 -250q84 125 154 277l190 -100q-97 -194 -194 -328l225 -230l-186 -133l-191 195q-199 -186 -440 -186q-206 0 -336.5 114t-130.5 295z
M836 1094v4q0 72 -47 117t-121 45t-120 -48.5t-46 -124.5v-4q0 -53 24.5 -100t83.5 -113q111 41 168.5 93.5t57.5 130.5zM334 401v-4q0 -92 67.5 -150.5t156.5 -58.5q155 0 286 125l-320 326q-190 -82 -190 -238z" />
    <glyph glyph-name="quotesingle" unicode="'" horiz-adv-x="550" 
d="M455 1434v-11l-201 -602h-131l47 613h285z" />
    <glyph glyph-name="parenleft" unicode="(" horiz-adv-x="901" 
d="M129 588q0 293 143.5 508t423.5 368l109 -166q-330 -218 -379 -407t-49 -303q0 -229 104.5 -398.5t323.5 -312.5l-109 -166q-281 154 -424 369t-143 508z" />
    <glyph glyph-name="parenright" unicode=")" horiz-adv-x="901" 
d="M774 588q0 -563 -567 -877l-109 166q330 218 379 407t49 304q0 229 -105.5 397t-322.5 313l109 166q567 -313 567 -876z" />
    <glyph glyph-name="asterisk" unicode="*" horiz-adv-x="880" 
d="M397 1032l-204 -149l-74 125l233 102l-233 102l74 125l204 -149l-28 250h143l-29 -250l205 149l74 -125l-234 -102l234 -102l-74 -125l-205 149l29 -250h-143z" />
    <glyph glyph-name="plus" unicode="+" horiz-adv-x="1310" 
d="M539 608h-394v226h394v391h233v-391h393v-226h-393v-391h-233v391z" />
    <glyph glyph-name="comma" unicode="," horiz-adv-x="550" 
d="M139 0v281h273v-238q0 -172 -80 -250t-236 -90l-26 104q188 37 174 193h-105z" />
    <glyph glyph-name="hyphen" unicode="-" horiz-adv-x="835" 
d="M115 750h606v-244h-606v244z" />
    <glyph glyph-name="hyphen" unicode="&#xad;" horiz-adv-x="835" 
d="M115 750h606v-244h-606v244z" />
    <glyph glyph-name="period" unicode="." horiz-adv-x="550" 
d="M139 281h273v-281h-273v281z" />
    <glyph glyph-name="slash" unicode="/" horiz-adv-x="1067" 
d="M874 1634h216l-926 -1896h-215z" />
    <glyph glyph-name="zero" unicode="0" horiz-adv-x="1482" 
d="M672 -25q-209 0 -382 212t-173 526v4q0 314 127 469t242.5 213.5t325 58.5t382 -213t172.5 -524v-4q0 -314 -127 -469.5t-242.5 -214t-324.5 -58.5zM1106 713v4q0 215 -102 364.5t-265 149.5t-262.5 -145.5t-99.5 -364.5v-4q0 -219 102 -366.5t264.5 -147.5t262.5 145.5
t100 364.5z" />
    <glyph glyph-name="one" unicode="1" horiz-adv-x="811" 
d="M614 1444v-1444h-249v1188l-259 -72l-53 205l385 123h176z" />
    <glyph glyph-name="two" unicode="2" horiz-adv-x="1255" 
d="M862 1006q0 106 -66.5 164.5t-165 58.5t-173 -53.5t-158.5 -161.5l-178 139q109 154 229 227.5t315 73.5t326 -118t131 -310v-4q0 -159 -68.5 -253.5t-139 -159t-164.5 -142.5l-295 -246h682v-221h-1037v199l494 419q216 178 242 258t26 130z" />
    <glyph glyph-name="three" unicode="3" horiz-adv-x="1265" 
d="M264 391q160 -188 370 -188q114 0 184.5 59.5t70.5 157.5v4q0 106 -89 163.5t-241 57.5h-117l-41 158l387 411h-620v220h948v-189l-399 -409q288 -35 355 -169.5t67 -234.5v-4q0 -199 -140 -326t-362 -127q-338 0 -549 252z" />
    <glyph glyph-name="four" unicode="4" horiz-adv-x="1394" 
d="M844 322h-723l-47 180l796 942h215v-916h205v-206h-205v-322h-241v322zM844 528v568l-471 -568h471z" />
    <glyph glyph-name="five" unicode="5" horiz-adv-x="1273" 
d="M652 915q225 0 363 -116.5t138 -333.5v-4q0 -220 -146 -353t-384 -133q-298 0 -527 220l156 182q185 -172 369 -172q129 0 206.5 67.5t77.5 180.5v4q0 111 -83 174t-214 63t-264 -63l-151 100l40 703h857v-224h-639l-23 -336q117 41 224 41z" />
    <glyph glyph-name="six" unicode="6" horiz-adv-x="1343" 
d="M117 674v4q0 340 159.5 560t454.5 220q139 0 241.5 -42t196.5 -118l-135 -194q-76 59 -146.5 92t-157.5 33q-164 0 -253.5 -127.5t-97.5 -327.5q78 73 155 108.5t184 35.5q220 0 362.5 -122t142.5 -329v-4q0 -214 -153 -351t-390 -137q-308 0 -435.5 199.5t-127.5 499.5z
M971 453v4q0 109 -79 179.5t-211 70.5t-213 -73t-81 -179v-4q0 -110 80 -184t216 -74t212 74t76 186z" />
    <glyph glyph-name="seven" unicode="7" horiz-adv-x="1247" 
d="M139 1212v222h1008v-191l-647 -1243h-283l643 1212h-721z" />
    <glyph glyph-name="eight" unicode="8" horiz-adv-x="1290" 
d="M147 1063v4q0 162 140.5 274.5t356.5 112.5q217 0 358 -111t141 -276v-4q0 -121 -58.5 -196.5t-150.5 -123.5q117 -53 187.5 -134t70.5 -210v-4q0 -190 -153.5 -302.5t-391 -112.5t-393.5 112t-156 297v4q0 243 258 350q-209 107 -209 320zM645.5 827q110.5 0 183 59.5
t72.5 151.5v4q0 84 -69.5 142.5t-186.5 58.5t-186.5 -58.5t-69.5 -140.5v-4q0 -94 73 -153.5t183.5 -59.5zM645 190q141 0 221 62.5t80 153.5v4q0 96 -85.5 156.5t-215.5 60.5t-215.5 -60.5t-85.5 -156.5v-4q0 -88 80 -152t221 -64z" />
    <glyph glyph-name="nine" unicode="9" horiz-adv-x="1343" 
d="M291 340q158 -135 321 -135q164 0 254.5 124.5t98.5 325.5q-121 -151 -344 -151t-361.5 124t-138.5 330v5q0 212 150 353.5t384 141.5q135 0 228.5 -38t171.5 -116q172 -171 172 -544v-4q0 -352 -165.5 -566.5t-449.5 -214.5q-150 0 -258 48.5t-200 123.5zM956 973v4
q0 113 -80.5 188.5t-215.5 75.5t-211 -77.5t-76 -188.5v-4q0 -113 79 -184.5t213 -71.5t212.5 74t78.5 184z" />
    <glyph glyph-name="colon" unicode=":" horiz-adv-x="571" 
d="M150 1081h272v-280h-272v280zM150 281h272v-281h-272v281z" />
    <glyph glyph-name="semicolon" unicode=";" horiz-adv-x="571" 
d="M150 1081h272v-280h-272v280zM150 0v281h272v-238q0 -172 -80 -250t-236 -90l-26 104q188 37 174 193h-104z" />
    <glyph glyph-name="semicolon" unicode="&#x37e;" horiz-adv-x="571" 
d="M150 1081h272v-280h-272v280zM150 0v281h272v-238q0 -172 -80 -250t-236 -90l-26 104q188 37 174 193h-104z" />
    <glyph glyph-name="less" unicode="&#x3c;" horiz-adv-x="1310" 
d="M143 610v221l977 453v-235l-731 -326l731 -328v-237z" />
    <glyph glyph-name="equal" unicode="=" horiz-adv-x="1310" 
d="M176 1092h959v-230h-959v230zM176 580h959v-230h-959v230z" />
    <glyph glyph-name="greater" unicode="&#x3e;" horiz-adv-x="1310" 
d="M190 393l732 326l-732 328v237l977 -453v-221l-977 -452v235z" />
    <glyph glyph-name="question" unicode="?" horiz-adv-x="1107" 
d="M537 1223q-182 0 -334 -162l-154 164q90 102 209 164.5t255 62.5q249 0 379 -113.5t130 -302.5v-4q0 -180 -112 -280.5t-300 -133.5l-20 -165h-166l-41 331l10 11q379 15 379 229v4q0 86 -62.5 140.5t-172.5 54.5zM365 281h274v-281h-274v281z" />
    <glyph glyph-name="at" unicode="@" horiz-adv-x="2007" 
d="M1022 -332q-197 0 -363.5 71t-289.5 192.5t-191.5 283.5t-68.5 346t69.5 347t190 285t284.5 193.5t352.5 71.5t351.5 -67.5t283.5 -179t189 -258.5t68.5 -291q0 -262 -115 -393.5t-282 -131.5q-121 0 -194.5 43t-108.5 101q-139 -144 -305 -144t-274.5 105.5
t-108.5 281.5q0 212 141.5 362t326.5 150t286 -151l24 123l199 -31l-90 -516q-4 -29 -7.5 -51.5t-3.5 -36.5q0 -66 42 -106t108 -40q126 0 203.5 109t77.5 311q0 141 -61.5 273.5t-170 234.5t-257 163.5t-323.5 61.5t-324 -64.5t-258.5 -176t-171 -261t-61.5 -318.5
t61.5 -317.5t172.5 -259t263.5 -174t319.5 -63.5t285.5 35t235.5 102l37 -61q-255 -154 -543 -154zM1219 623q0 114 -61.5 175.5t-165.5 61.5t-188.5 -93.5t-84.5 -214.5t60.5 -179t164.5 -58t189.5 97t85.5 211z" />
    <glyph glyph-name="A" unicode="A" horiz-adv-x="1617" 
d="M692 1444h234l630 -1444h-266l-145 346h-678l-148 -346h-258zM1053 569l-248 574l-246 -574h494z" />
    <glyph glyph-name="B" unicode="B" horiz-adv-x="1478" 
d="M184 1434h643q248 0 375 -127q96 -96 96 -238v-4q0 -174 -82.5 -236.5t-121.5 -83.5q141 -51 212.5 -129.5t71.5 -218.5v-4q0 -190 -143.5 -291.5t-386.5 -101.5h-664v1434zM776 829q123 0 197 48.5t74 146.5v4q0 86 -64.5 134t-187.5 48h-363v-381h344zM1126 424
q0 192 -295 192h-399v-393h418q129 0 202.5 49.5t73.5 147.5v4z" />
    <glyph glyph-name="C" unicode="C" horiz-adv-x="1511" 
d="M1260 1049q-192 178 -392 178q-212 0 -347.5 -146.5t-135.5 -359.5v-4q0 -214 135 -362t338 -148q131 0 225.5 50t186.5 136l162 -164q-177 -190 -329.5 -222t-281.5 -32t-262 57.5t-230.5 157t-152.5 234.5t-55 289v4q0 311 209.5 526t529.5 215q266 0 388 -87t173 -136
z" />
    <glyph glyph-name="D" unicode="D" horiz-adv-x="1601" 
d="M184 1434h535q333 0 547.5 -203t214.5 -510v-4q0 -309 -215.5 -513t-546.5 -204h-535v1434zM719 229q225 0 361.5 136.5t136.5 347.5v4q0 212 -137.5 349.5t-360.5 137.5h-283v-975h283z" />
    <glyph glyph-name="E" unicode="E" horiz-adv-x="1372" 
d="M184 1434h1063v-226h-811v-372h719v-226h-719v-385h821v-225h-1073v1434z" />
    <glyph glyph-name="F" unicode="F" horiz-adv-x="1343" 
d="M184 1434h1067v-230h-815v-391h723v-229h-723v-584h-252v1434z" />
    <glyph glyph-name="G" unicode="G" horiz-adv-x="1605" 
d="M121 713v4q0 150 54 285t152.5 236t234.5 160.5t298 59.5q324 0 551 -194l-160 -191q-180 154 -388 154q-206 0 -342 -149t-136 -357v-4q0 -226 137 -369t344 -143t353 108v269h-367v219h610v-602q-264 -224 -597 -224t-538.5 210t-205.5 528z" />
    <glyph glyph-name="H" unicode="H" horiz-adv-x="1556" 
d="M184 1434h252v-596h684v596h252v-1434h-252v604h-684v-604h-252v1434z" />
    <glyph glyph-name="I" unicode="I" horiz-adv-x="649" 
d="M199 1434h252v-1434h-252v1434z" />
    <glyph glyph-name="J" unicode="J" horiz-adv-x="1144" 
d="M474 -20q-138 0 -248.5 66.5t-182.5 164.5l166 170q63 -80 130 -124t164 -44t159.5 68.5t62.5 212.5v940h258v-947q0 -247 -98.5 -345.5t-185.5 -130t-225 -31.5z" />
    <glyph glyph-name="K" unicode="K" horiz-adv-x="1484" 
d="M184 1434h252v-721l682 721h309l-596 -617l623 -817h-305l-490 645l-223 -229v-416h-252v1434z" />
    <glyph glyph-name="L" unicode="L" horiz-adv-x="1267" 
d="M184 1434h252v-1205h754v-229h-1006v1434z" />
    <glyph glyph-name="M" unicode="M" horiz-adv-x="1777" 
d="M184 1434h269l436 -678l436 678h268v-1434h-252v1028l-452 -676h-8l-449 672v-1024h-248v1434z" />
    <glyph glyph-name="N" unicode="N" horiz-adv-x="1617" 
d="M184 1434h234l768 -992v992h248v-1434h-211l-791 1020v-1020h-248v1434z" />
    <glyph glyph-name="O" unicode="O" horiz-adv-x="1740" 
d="M868 -25q-166 0 -303 58.5t-235.5 159t-153.5 234.5t-55 286v4q0 309 155.5 465.5t293 216t303 59.5t303 -58.5t235.5 -158.5t153.5 -234.5t55.5 -285.5v-4q0 -307 -155.5 -465t-293 -217.5t-303.5 -59.5zM1356 713v4q0 215 -139 362.5t-349 147.5t-346.5 -147.5
t-136.5 -358.5v-4q0 -215 139 -362.5t349 -147.5t346.5 147.5t136.5 358.5z" />
    <glyph glyph-name="P" unicode="P" horiz-adv-x="1368" 
d="M184 1434h566q251 0 397.5 -131t146.5 -349v-4q0 -232 -162 -360.5t-411 -128.5h-285v-461h-252v1434zM729 688q143 0 226 71.5t83 184.5v4q0 127 -84 191.5t-225 64.5h-293v-516h293z" />
    <glyph glyph-name="Q" unicode="Q" horiz-adv-x="1740" 
d="M121 713v4q0 309 155.5 465.5t293 216t303 59.5t303 -58.5t235.5 -158.5t153.5 -234.5t55.5 -285.5v-4q0 -247 -145 -441l163 -139l-161 -180l-172 154q-190 -136 -437 -136q-166 0 -303 58.5t-235.5 159t-153.5 234.5t-55 286zM855 207q153 0 263 69l-246 209l162 185
l248 -226q74 113 74 269v4q0 215 -139 362.5t-349 147.5t-346.5 -147.5t-136.5 -358.5v-4q0 -215 100.5 -321.5t190.5 -147.5t179 -41z" />
    <glyph glyph-name="R" unicode="R" horiz-adv-x="1480" 
d="M184 1434h639q266 0 414 -144q119 -123 119 -309v-4q0 -251 -133 -332.5t-209 -101.5l387 -543h-297l-352 500h-316v-500h-252v1434zM805 723q135 0 215 64.5t80 175.5v4q0 117 -78 177t-219 60h-367v-481h369z" />
    <glyph glyph-name="S" unicode="S" horiz-adv-x="1310" 
d="M240 389q215 -186 443 -186q126 0 194.5 49t68.5 131v4q0 78 -65.5 127.5t-219.5 83.5q-153 35 -242 68.5t-181.5 107.5t-92.5 260v4q0 183 137.5 299.5t352.5 116.5q293 0 520 -180l-135 -191q-201 148 -389 148q-111 0 -172.5 -49t-61.5 -121v-4q0 -86 67 -131t227 -84
q159 -40 333 -109t174 -321v-4q0 -199 -140.5 -313.5t-371.5 -114.5q-346 0 -598 229z" />
    <glyph glyph-name="T" unicode="T" horiz-adv-x="1327" 
d="M537 1200h-455v234h1163v-234h-454v-1200h-254v1200z" />
    <glyph glyph-name="U" unicode="U" horiz-adv-x="1550" 
d="M162 608v826h252v-816q0 -201 96 -305t265 -104t265.5 100.5t96.5 298.5v826h252v-813q0 -311 -163.5 -477.5t-452.5 -166.5q-285 0 -448 163t-163 468z" />
    <glyph glyph-name="V" unicode="V" horiz-adv-x="1536" 
d="M61 1434h279l432 -1102l430 1102h273l-596 -1444h-222z" />
    <glyph glyph-name="W" unicode="W" horiz-adv-x="2285" 
d="M74 1434h272l342 -1063l352 1067h213l353 -1067l342 1063h264l-500 -1444h-217l-352 1030l-352 -1030h-218z" />
    <glyph glyph-name="X" unicode="X" horiz-adv-x="1492" 
d="M598 729l-502 705h297l357 -514l358 514h289l-500 -701l520 -733h-297l-377 543l-378 -543h-289z" />
    <glyph glyph-name="Y" unicode="Y" horiz-adv-x="1466" 
d="M860 0h-254v565l-569 869h297l401 -635l406 635h289l-570 -863v-571z" />
    <glyph glyph-name="Z" unicode="Z" horiz-adv-x="1437" 
d="M160 1210v224h1147v-187l-846 -1024h846v-223h-1174v186l846 1024h-819z" />
    <glyph glyph-name="bracketleft" unicode="[" horiz-adv-x="929" 
d="M180 1434h629v-195h-393v-1311h393v-194h-629v1700z" />
    <glyph glyph-name="backslash" unicode="\" horiz-adv-x="1067" 
d="M-23 1634h216l925 -1896h-215z" />
    <glyph glyph-name="bracketright" unicode="]" horiz-adv-x="929" 
d="M121 -72h393v1311h-393v195h631v-1700h-631v194z" />
    <glyph glyph-name="asciicircum" unicode="^" 
d="M424 1436h176l309 -426h-190l-209 270l-209 -270h-186z" />
    <glyph glyph-name="underscore" unicode="_" horiz-adv-x="1228" 
d="M-4 -135h1237v-193h-1237v193z" />
    <glyph glyph-name="grave" unicode="`" 
d="M254 1454l225 100l217 -335h-192z" />
    <glyph glyph-name="a" unicode="a" horiz-adv-x="1202" 
d="M819 645q0 232 -276 232q-139 0 -299 -68l-68 199q90 41 184.5 65.5t227.5 24.5q242 0 358.5 -120t116.5 -337v-641h-246v133q-130 -156 -350 -156q-163 0 -274 88.5t-111 245.5v4q0 175 119.5 265t297.5 90t320 -45v20zM584 496q-126 0 -191 -45t-65 -123v-4
q0 -78 61 -119t135 -41q135 0 217 62.5t82 164.5v62q-113 43 -239 43z" />
    <glyph glyph-name="b" unicode="b" horiz-adv-x="1372" 
d="M403 901q139 203 355 203t366 -152t150 -409v-4q0 -258 -148.5 -410t-355.5 -152q-133 0 -221 57.5t-146 133.5v-168h-247v1495h247v-594zM1022 539v4q0 154 -89.5 250t-220.5 96t-223 -98.5t-92 -247.5v-4q0 -153 92.5 -249.5t222.5 -96.5t220 94t90 252z" />
    <glyph glyph-name="c" unicode="c" horiz-adv-x="1169" 
d="M936 752q-130 135 -268 135q-146 0 -235 -100.5t-89 -243.5v-4q0 -148 92 -248.5t232 -100.5q88 0 154.5 38t125.5 98l150 -148q-180 -203 -431 -203q-250 0 -410.5 162.5t-160.5 397.5v4q0 235 161 400t400 165q154 0 255.5 -51.5t177.5 -134.5z" />
    <glyph glyph-name="d" unicode="d" horiz-adv-x="1372" 
d="M100 539v4q0 258 148 409.5t354 151.5q133 0 221 -57.5t148 -133.5v582h248v-1495h-248v180q-143 -203 -358 -203t-364 153t-149 409zM975 539v4q0 154 -92 250t-222 96q-131 0 -221 -94t-90 -252v-4q0 -156 91 -251t220 -95q131 0 222.5 98t91.5 248z" />
    <glyph glyph-name="e" unicode="e" horiz-adv-x="1236" 
d="M96 537v4q0 236 150 399.5t388 163.5t373.5 -168t135.5 -414q0 -33 -4 -69h-795q20 -133 105.5 -204t191.5 -71t174 33t133 96l146 -129q-172 -203 -443 -203q-236 0 -395.5 157.5t-159.5 404.5zM623 901q-115 0 -190 -79t-91 -206h555q-20 194 -116.5 239.5t-157.5 45.5
z" />
    <glyph glyph-name="f" unicode="f" horiz-adv-x="770" 
d="M598 1296q-143 0 -143 -163v-60h286v-205h-282v-868h-248v868h-137v207h137v78q0 180 87 267t245 87q104 0 200 -28v-209q-80 26 -145 26z" />
    <glyph glyph-name="g" unicode="g" horiz-adv-x="1372" 
d="M973 285q-155 -199 -363 -199q-217 0 -363.5 138t-146.5 368v4q0 232 146.5 370t345.5 138q137 0 226 -54.5t153 -129.5v161h248v-860q0 -553 -582 -553q-270 0 -483 129l92 187q187 -115 369 -115q358 0 358 332v84zM975 592v4q0 129 -91.5 214t-223.5 85t-221 -82.5
t-89 -214.5v-4q0 -128 87.5 -213.5t221 -85.5t225 85t91.5 212z" />
    <glyph glyph-name="h" unicode="h" horiz-adv-x="1269" 
d="M730 1104q195 0 295.5 -112.5t100.5 -303.5v-688h-247v614q0 127 -60.5 196t-170.5 69t-177.5 -71t-67.5 -198v-610h-247v1495h247v-582q132 191 327 191z" />
    <glyph glyph-name="i" unicode="i" horiz-adv-x="585" 
d="M160 1483h266v-236h-266v236zM170 1081h248v-1081h-248v1081z" />
    <glyph glyph-name="j" unicode="j" horiz-adv-x="585" 
d="M160 1483h266v-236h-266v236zM418 -14q0 -320 -316 -320q-48 0 -118 10v199q37 -6 69 -6q117 0 117 131v1081h248v-1095z" />
    <glyph glyph-name="k" unicode="k" horiz-adv-x="1191" 
d="M156 1495h247v-893l449 479h301l-430 -440l444 -641h-286l-326 467l-152 -158v-309h-247v1495z" />
    <glyph glyph-name="l" unicode="l" horiz-adv-x="585" 
d="M170 1495h248v-1495h-248v1495z" />
    <glyph glyph-name="m" unicode="m" horiz-adv-x="1945" 
d="M1421 1104q178 0 278.5 -107.5t100.5 -306.5v-690h-248v614q0 129 -57 197t-161 68t-168 -69t-64 -200v-610h-248v616q0 127 -57.5 195t-162 68t-168 -72t-63.5 -199v-608h-247v1081h247v-163q60 83 137 134.5t194 51.5q116 0 197 -52.5t124 -138.5q147 191 366 191z" />
    <glyph glyph-name="n" unicode="n" horiz-adv-x="1269" 
d="M730 1104q195 0 295.5 -112.5t100.5 -303.5v-688h-247v614q0 127 -60.5 196t-170.5 69t-177.5 -71t-67.5 -198v-610h-247v1081h247v-168q132 191 327 191z" />
    <glyph glyph-name="o" unicode="o" horiz-adv-x="1345" 
d="M671 -25q-246 0 -410.5 162.5t-164.5 397.5v4q0 233 166 399t413.5 166t410.5 -164.5t163 -396.5v-4q0 -232 -120.5 -352.5t-227 -166t-230.5 -45.5zM1001 535v4q0 146 -94.5 247t-237 101t-234 -98t-91.5 -246v-4q0 -144 94 -246.5t238 -102.5q143 0 234 99.5t91 245.5z
" />
    <glyph glyph-name="p" unicode="p" horiz-adv-x="1372" 
d="M403 901q139 203 355 203t366 -152t150 -409v-4q0 -258 -148.5 -410t-355.5 -152q-133 0 -221 57.5t-146 133.5v-496h-247v1409h247v-180zM1022 539v4q0 154 -89.5 250t-220.5 96t-223 -98.5t-92 -247.5v-4q0 -153 92.5 -249.5t222.5 -96.5t220 94t90 252z" />
    <glyph glyph-name="q" unicode="q" horiz-adv-x="1372" 
d="M100 539v4q0 258 148 409.5t354 151.5q133 0 221 -57.5t148 -133.5v168h248v-1409h-248v508q-143 -203 -358 -203t-364 153t-149 409zM975 539v4q0 154 -92 250t-222 96q-131 0 -221 -94t-90 -252v-4q0 -156 91 -251t220 -95q131 0 222.5 98t91.5 248z" />
    <glyph glyph-name="r" unicode="r" horiz-adv-x="845" 
d="M156 1081h247v-243q51 123 145.5 196.5t237.5 67.5v-262h-14q-167 0 -268 -109t-101 -319v-412h-247v1081z" />
    <glyph glyph-name="s" unicode="s" 
d="M500 903q-72 0 -112 -30.5t-40 -77.5v-4q0 -69 98.5 -103.5t151.5 -50.5q140 -42 235 -112.5t95 -200.5v-5q0 -165 -113 -252t-289 -87q-253 0 -458 161l110 168q177 -133 354 -133q80 0 124 32t44 85v4q0 58 -59 86.5t-150 54.5q-91 27 -230.5 79t-139.5 249v4
q0 151 109.5 240.5t275.5 89.5q211 0 397 -123l-98 -176q-169 102 -305 102z" />
    <glyph glyph-name="t" unicode="t" horiz-adv-x="839" 
d="M207 299v569h-137v213h137v297h248v-297h290v-213h-290v-530q0 -135 133 -135q80 0 153 37v-203q-96 -55 -223 -55q-311 0 -311 317z" />
    <glyph glyph-name="u" unicode="u" horiz-adv-x="1269" 
d="M528 -23q-184 0 -284.5 113t-100.5 303v688h248v-614q0 -127 60.5 -195.5t170.5 -68.5t177 70.5t67 197.5v610h248v-1081h-248v168q-53 -78 -133 -134.5t-205 -56.5z" />
    <glyph glyph-name="v" unicode="v" horiz-adv-x="1218" 
d="M53 1081h266l291 -794l293 794h260l-442 -1089h-223z" />
    <glyph glyph-name="w" unicode="w" horiz-adv-x="1763" 
d="M66 1081h253l218 -741l239 745h211l242 -745l221 741h248l-355 -1089h-221l-241 739l-244 -739h-221z" />
    <glyph glyph-name="x" unicode="x" horiz-adv-x="1187" 
d="M459 549l-383 532h270l250 -356l250 356h264l-383 -526l399 -555h-270l-266 379l-264 -379h-265z" />
    <glyph glyph-name="y" unicode="y" horiz-adv-x="1220" 
d="M344 -125q59 0 94 26.5t66 98.5l-451 1081h264l308 -802l280 802h258l-430 -1112q-66 -168 -146.5 -235.5t-212.5 -67.5t-253 66l84 184q80 -41 139 -41z" />
    <glyph glyph-name="z" unicode="z" horiz-adv-x="1146" 
d="M129 879v202h918v-170l-625 -708h625v-203h-941v170l625 709h-602z" />
    <glyph glyph-name="braceleft" unicode="{" horiz-adv-x="997" 
d="M160 494h-54v188h54q129 0 180 52t51 173l-4 148q0 167 100 265t365 144l43 -164q-177 -48 -228 -105t-51 -175l5 -152q0 -121 -55.5 -184t-157.5 -96q104 -35 158.5 -97.5t54.5 -183.5l-5 -151q0 -119 51.5 -176t227.5 -105l-43 -164q-382 69 -423.5 199.5t-41.5 210.5
l4 147q0 121 -51 173.5t-180 52.5z" />
    <glyph glyph-name="bar" unicode="|" horiz-adv-x="677" 
d="M240 1634h198v-1896h-198v1896z" />
    <glyph glyph-name="braceright" unicode="}" horiz-adv-x="997" 
d="M838 682h53v-188h-53q-129 0 -180.5 -52.5t-51.5 -173.5l4 -147q0 -170 -100.5 -266.5t-364.5 -143.5l-43 164q176 48 227.5 105t51.5 176l-4 151q0 121 55 184.5t158 96.5q-104 35 -158.5 97.5t-54.5 182.5l4 152q0 118 -52 176.5t-227 103.5l43 164q267 -48 366 -145
t99 -264l-4 -148q0 -121 51.5 -173t180.5 -52z" />
    <glyph glyph-name="asciitilde" unicode="~" horiz-adv-x="1013" 
d="M350 766q58 0 128.5 -28.5t104 -41t69.5 -12.5t58.5 24.5t45.5 77.5l137 -41q-35 -125 -85 -190.5t-130 -65.5t-146.5 28t-100 41t-69.5 13t-58.5 -24.5t-45.5 -77.5l-137 43q35 123 85 188.5t144 65.5z" />
    <glyph glyph-name="nonbreakingspace" unicode="&#xa0;" horiz-adv-x="614" 
 />
    <glyph glyph-name="exclamdown" unicode="&#xa1;" horiz-adv-x="618" 
d="M174 1434h272v-281h-272v281zM455 0h-291v72l78 909h137l76 -909v-72z" />
    <glyph glyph-name="cent" unicode="&#xa2;" horiz-adv-x="1189" 
d="M657 164h-12l-35 -176h-180l41 209q-253 92 -309 264t-56 262v4q0 236 160 399.5t400 163.5h18l31 156h180l-37 -182q131 -40 242 -160l-150 -160q-74 74 -141 103l-133 -668q148 3 282 133l144 -141q-80 -90 -186.5 -148.5t-258.5 -58.5zM348 731v-4q0 -104 46 -187
t128 -126l129 661q-129 -4 -216 -101.5t-87 -242.5z" />
    <glyph glyph-name="sterling" unicode="&#xa3;" horiz-adv-x="1318" 
d="M1022 1071q-115 150 -232 150q-118 0 -176 -58q-69 -73 -69 -198v-183h510v-213h-510v-350h665v-219h-1081v160l162 49v360h-162v213h162v189q0 231 127 356q123 127 349 127t318.5 -90t128.5 -139z" />
    <glyph glyph-name="currency" unicode="&#xa4;" horiz-adv-x="1474" 
d="M516 717q0 -42 4 -82h479v-174h-442q41 -121 127 -190.5t215 -69.5t199.5 73.5t105.5 120.5l180 -131q-197 -289 -495 -289q-225 0 -381 132.5t-215 353.5h-187v174h158q-2 20 -2 25v65q0 61 4 84h-160v174h193q98 330 285.5 402.5t289.5 72.5q182 0 296 -68t210 -202
l-190 -141q-66 90 -137.5 138t-180.5 48t-189.5 -66.5t-123.5 -183.5h440v-174h-479q-4 -40 -4 -88v-4z" />
    <glyph glyph-name="yen" unicode="&#xa5;" horiz-adv-x="1404" 
d="M582 209h-396v182h396v150h-396v182h326l-473 711h293l375 -600l374 600h285l-475 -711h328v-182h-396v-150h396v-182h-396v-209h-241v209z" />
    <glyph glyph-name="section" unicode="&#xa7;" horiz-adv-x="1294" 
d="M1069 283v-4q0 -135 -105.5 -217t-276.5 -82q-311 0 -492 194l141 139q158 -145 330 -145q86 0 125.5 28.5t39.5 71.5v4q0 47 -55.5 76.5t-194.5 62.5q-260 60 -361 126t-101 178v4q0 100 62.5 156.5t156.5 80.5q-113 72 -113 195v4q0 137 106.5 218t276.5 81
q310 0 492 -194l-142 -140q-159 146 -329 146q-82 0 -124 -28t-42 -73v-4q0 -45 60 -78t194 -62q252 -56 355.5 -124t103.5 -178v-4q0 -98 -62.5 -155.5t-157.5 -82.5q113 -70 113 -194zM952 680v4q0 84 -212 137q-173 43 -242 43q-68 0 -112 -31.5t-44 -78.5v-4
q0 -45 54.5 -78t192.5 -68t207 -35t112.5 32t43.5 79z" />
    <glyph glyph-name="dieresis" unicode="&#xa8;" 
d="M590 1460h252v-241h-252v241zM182 1460h252v-241h-252v241z" />
    <glyph glyph-name="copyright" unicode="&#xa9;" horiz-adv-x="1699" 
d="M848 -25q-156 0 -291 58.5t-234.5 159t-156.5 234.5t-57 286v4q0 152 57 286t157.5 235t236.5 160.5t292 59.5t291 -58.5t234.5 -158.5t156.5 -234.5t57 -285.5v-4q0 -152 -57 -286t-157.5 -235.5t-236.5 -161t-292 -59.5zM848 49q141 0 263 53.5t211 143.5t140 212
t51 259v4q0 137 -50 258t-139 211t-210 142t-262 52t-263 -53t-211 -143t-140.5 -212t-51.5 -259v-4q0 -137 50.5 -258t139.5 -211t210 -142.5t262 -52.5zM1174 465q-128 -139 -302 -139q-184 0 -295.5 115.5t-111.5 281.5v4q0 165 112 283t285 118q111 0 180.5 -33.5
t124.5 -86.5l-96 -111q-101 92 -207 92t-174.5 -76t-68.5 -184v-4q0 -106 68 -183t173 -77q70 0 118 25.5t95 70.5z" />
    <glyph glyph-name="ordfeminine" unicode="&#xaa;" horiz-adv-x="798" 
d="M514 907q-73 -82 -174 -82t-163 49t-62 136v4q0 96 68.5 143t161.5 47t171 -22v10q0 125 -143 125q-65 0 -170 -39l-39 111q108 51 234 51t192 -68q63 -59 63 -182v-352h-139v69zM109 696h553v-118h-553v118zM256 1016q0 -86 116 -86q56 0 100 34.5t44 88.5v37
q-59 22 -125 22q-65 0 -100 -24.5t-35 -67.5v-4z" />
    <glyph glyph-name="guillemotleft" unicode="&#xab;" horiz-adv-x="1241" 
d="M606 532v17l338 450l189 -96l-271 -360l271 -363l-189 -96zM90 532v17l340 450l188 -96l-270 -360l270 -363l-188 -96z" />
    <glyph glyph-name="registered" unicode="&#xae;" horiz-adv-x="1699" 
d="M848 -25q-156 0 -291 58.5t-234.5 159t-156.5 234.5t-57 286v4q0 152 57 286t157.5 235t236.5 160.5t292 59.5t291 -58.5t234.5 -158.5t156.5 -234.5t57 -285.5v-4q0 -152 -57 -286t-157.5 -235.5t-236.5 -161t-292 -59.5zM848 49q141 0 263 53.5t211 143.5t140 212
t51 259v4q0 137 -50 258t-139 211t-210 142t-262 52t-263 -53t-211 -143t-140.5 -212t-51.5 -259v-4q0 -137 50.5 -258t139.5 -211t210 -142.5t262 -52.5zM551 1126h346q152 0 236 -84q63 -59 63 -161v-4q0 -94 -50 -152.5t-130 -81.5l209 -293h-176l-189 268h-162v-268
h-147v776zM891 748q72 0 112.5 32.5t40.5 87.5v4q0 59 -40.5 90t-112.5 31h-193v-245h193z" />
    <glyph glyph-name="macron" unicode="&#xaf;" 
d="M162 1411h700v-182h-700v182z" />
    <glyph glyph-name="macron" unicode="&#x2c9;" 
d="M162 1411h700v-182h-700v182z" />
    <glyph glyph-name="degree" unicode="&#xb0;" horiz-adv-x="964" 
d="M243.5 880.5q-102.5 100.5 -102.5 231.5v4q0 133 102.5 231.5t237 98.5t238.5 -97.5t104 -232.5v-4q0 -133 -103.5 -232.5t-238.5 -99.5t-237.5 100.5zM482 915q79 0 136.5 57.5t57.5 139.5v4q0 82 -56.5 138.5t-138.5 56.5t-137 -56.5t-55 -138.5v-4q0 -127 75.5 -162
t117.5 -35z" />
    <glyph glyph-name="plusminus" unicode="&#xb1;" horiz-adv-x="1249" 
d="M1147 412v-4q0 -187 -137.5 -310t-372.5 -123q-176 0 -317.5 69t-239.5 181l174 162q163 -184 387 -184q119 0 187.5 56t68.5 151v4q0 98 -83 150t-232 52h-154v213h160q125 0 197.5 56.5t72.5 148.5v4q0 86 -66 139.5t-176 53.5t-185 -48t-146 -132l-176 143
q150 196 282.5 230t232.5 34q211 0 347.5 -108.5t136.5 -274.5v-4q0 -232 -213 -336q252 -95 252 -323z" />
    <glyph glyph-name="acute" unicode="&#xb4;" 
d="M545 1554l225 -100l-250 -235h-192z" />
    <glyph glyph-name="mu" unicode="&#xb5;" horiz-adv-x="1740" 
d="M121 713v4q0 309 155.5 465.5t293 216t303 59.5t303 -58.5t235.5 -158.5t153.5 -234.5t55.5 -285.5v-4q0 -164 -64.5 -307.5t-181.5 -247.5l359 -352v-17h-369l-240 227q-115 -45 -269 -45q-153 0 -290 58.5t-235.5 159t-153.5 234.5t-55 286zM1356 713v4
q0 215 -139 362.5t-349 147.5t-346.5 -147.5t-136.5 -358.5v-4q0 -215 139 -362.5t349 -147.5t346.5 147.5t136.5 358.5z" />
    <glyph glyph-name="mu" unicode="&#x3bc;" horiz-adv-x="1740" 
d="M121 713v4q0 309 155.5 465.5t293 216t303 59.5t303 -58.5t235.5 -158.5t153.5 -234.5t55.5 -285.5v-4q0 -164 -64.5 -307.5t-181.5 -247.5l359 -352v-17h-369l-240 227q-115 -45 -269 -45q-153 0 -290 58.5t-235.5 159t-153.5 234.5t-55 286zM1356 713v4
q0 215 -139 362.5t-349 147.5t-346.5 -147.5t-136.5 -358.5v-4q0 -215 139 -362.5t349 -147.5t346.5 147.5t136.5 358.5z" />
    <glyph glyph-name="paragraph" unicode="&#xb6;" horiz-adv-x="1140" 
d="M709 500h-37q-262 0 -426 121.5t-164 343.5v4q0 212 152 338.5t403 126.5h326v-1434h-254v500z" />
    <glyph glyph-name="periodcentered" unicode="&#xb7;" horiz-adv-x="550" 
d="M139 768h273v-281h-273v281z" />
    <glyph glyph-name="periodcentered" unicode="&#x2219;" horiz-adv-x="550" 
d="M139 768h273v-281h-273v281z" />
    <glyph glyph-name="cedilla" unicode="&#xb8;" 
d="M268 -248l185 268h186l-154 -358z" />
    <glyph glyph-name="ordmasculine" unicode="&#xba;" horiz-adv-x="798" 
d="M179 912q-89 89 -89 218v5q0 129 90 219t220 90t219.5 -89t89.5 -218v-4q0 -130 -90.5 -220t-220.5 -90t-219 89zM104 696h590v-118h-590v118zM402 950q75 0 119 53.5t44 126.5v5q0 74 -47 128t-122 54t-119 -53.5t-44 -126.5v-4q0 -74 47 -128.5t122 -54.5z" />
    <glyph glyph-name="guillemotright" unicode="&#xbb;" horiz-adv-x="1241" 
d="M623 178l270 361l-270 362l188 98l340 -450v-17l-340 -448zM109 178l270 361l-270 362l188 98l338 -450v-17l-338 -448z" />
    <glyph glyph-name="questiondown" unicode="&#xbf;" horiz-adv-x="1107" 
d="M469 1434h274v-281h-274v281zM571 211q180 0 334 162l154 -164q-90 -102 -208.5 -164.5t-256.5 -62.5q-247 0 -377.5 112.5t-130.5 302.5v4q0 265 163 332.5t249 81.5l20 166h166l41 -332l-10 -10q-379 -15 -379 -229v-4q0 -86 62.5 -140.5t172.5 -54.5z" />
    <glyph glyph-name="Agrave" unicode="&#xc0;" horiz-adv-x="1617" 
d="M692 1444h234l630 -1444h-266l-145 346h-678l-148 -346h-258zM1053 569l-248 574l-246 -574h494zM469 1788l225 100l217 -336h-192z" />
    <glyph glyph-name="Aacute" unicode="&#xc1;" horiz-adv-x="1617" 
d="M692 1444h234l630 -1444h-266l-145 346h-678l-148 -346h-258zM1053 569l-248 574l-246 -574h494zM924 1888l225 -100l-250 -236h-192z" />
    <glyph glyph-name="Acircumflex" unicode="&#xc2;" horiz-adv-x="1617" 
d="M692 1444h234l630 -1444h-266l-145 346h-678l-148 -346h-258zM1053 569l-248 574l-246 -574h494zM694 1849h230l237 -299h-196l-158 138l-158 -138h-192z" />
    <glyph glyph-name="Atilde" unicode="&#xc3;" horiz-adv-x="1617" 
d="M692 1444h234l630 -1444h-266l-145 346h-678l-148 -346h-258zM1053 569l-248 574l-246 -574h494zM651 1829q57 0 129 -28.5t105 -41t69 -12.5t59 24.5t46 77.5l137 -43q-35 -123 -85 -188.5t-129 -65.5t-147.5 28t-102.5 41t-70 13t-58 -24.5t-45 -77.5l-137 41
q35 125 85 190.5t144 65.5z" />
    <glyph glyph-name="Adieresis" unicode="&#xc4;" horiz-adv-x="1617" 
d="M692 1444h234l630 -1444h-266l-145 346h-678l-148 -346h-258zM1053 569l-248 574l-246 -574h494zM887 1794h252v-242h-252v242zM479 1794h252v-242h-252v242z" />
    <glyph glyph-name="Aring" unicode="&#xc5;" horiz-adv-x="1617" 
d="M575 1579v4q0 89 69 156t165 67t164.5 -66.5t68.5 -156.5v-4q0 -105 -96 -178l610 -1401h-266l-145 346h-678l-148 -346h-258l611 1401q-97 73 -97 178zM809 1454q53 0 90 37t37 88v4q0 51 -37 88t-90 37t-90 -37t-37 -88v-4q0 -51 37 -88t90 -37zM1053 569l-248 574
l-246 -574h494z" />
    <glyph glyph-name="AE" unicode="&#xc6;" horiz-adv-x="2140" 
d="M2015 1434v-226h-766v-372h674v-226h-674v-385h776v-225h-1028v346h-522l-190 -346h-260l800 1434h1190zM997 569v645h-41l-360 -645h401z" />
    <glyph glyph-name="Ccedilla" unicode="&#xc7;" horiz-adv-x="1511" 
d="M1260 1049q-192 178 -392 178q-212 0 -347.5 -146.5t-135.5 -359.5v-4q0 -214 135 -362t338 -148q131 0 225.5 50t186.5 136l162 -164q-172 -179 -308.5 -213t-228.5 -39l-135 -315l-215 90l162 238q-262 51 -424 250.5t-162 472.5v4q0 311 209.5 526t529.5 215
q266 0 388 -87t173 -136z" />
    <glyph glyph-name="Egrave" unicode="&#xc8;" horiz-adv-x="1372" 
d="M184 1434h1063v-226h-811v-372h719v-226h-719v-385h821v-225h-1073v1434zM420 1788l225 100l217 -336h-192z" />
    <glyph glyph-name="Eacute" unicode="&#xc9;" horiz-adv-x="1372" 
d="M184 1434h1063v-226h-811v-372h719v-226h-719v-385h821v-225h-1073v1434zM784 1888l226 -100l-250 -236h-193z" />
    <glyph glyph-name="Ecircumflex" unicode="&#xca;" horiz-adv-x="1372" 
d="M184 1434h1063v-226h-811v-372h719v-226h-719v-385h821v-225h-1073v1434zM596 1851h229l238 -299h-197l-157 138l-158 -138h-193z" />
    <glyph glyph-name="Edieresis" unicode="&#xcb;" horiz-adv-x="1372" 
d="M184 1434h1063v-226h-811v-372h719v-226h-719v-385h821v-225h-1073v1434zM788 1794h252v-242h-252v242zM381 1794h252v-242h-252v242z" />
    <glyph glyph-name="Igrave" unicode="&#xcc;" horiz-adv-x="649" 
d="M199 1434h252v-1434h-252v1434zM-12 1788l225 100l217 -336h-192z" />
    <glyph glyph-name="Iacute" unicode="&#xcd;" horiz-adv-x="649" 
d="M199 1434h252v-1434h-252v1434zM438 1888l226 -100l-250 -236h-193z" />
    <glyph glyph-name="Icircumflex" unicode="&#xce;" horiz-adv-x="649" 
d="M199 1434h252v-1434h-252v1434zM211 1851h229l238 -299h-197l-157 138l-158 -138h-193z" />
    <glyph glyph-name="Idieresis" unicode="&#xcf;" horiz-adv-x="649" 
d="M199 1434h252v-1434h-252v1434zM403 1794h252v-242h-252v242zM-4 1794h252v-242h-252v242z" />
    <glyph glyph-name="Eth" unicode="&#xd0;" horiz-adv-x="1662" 
d="M246 608h-154v226h154v600h534q334 0 548 -202.5t214 -510.5v-4q0 -310 -156.5 -458t-297 -203.5t-308.5 -55.5h-534v608zM780 229q225 0 361.5 136.5t136.5 347.5v4q0 212 -137.5 349.5t-360.5 137.5h-284v-370h360v-226h-360v-379h284z" />
    <glyph glyph-name="Ntilde" unicode="&#xd1;" horiz-adv-x="1617" 
d="M184 1434h234l768 -992v992h248v-1434h-211l-791 1020v-1020h-248v1434zM651 1829q57 0 129 -28.5t105 -41t69 -12.5t59 24.5t46 77.5l137 -43q-35 -123 -85 -188.5t-129 -65.5t-147.5 28t-102.5 41t-70 13t-58 -24.5t-45 -77.5l-137 41q35 125 85 190.5t144 65.5z" />
    <glyph glyph-name="Ograve" unicode="&#xd2;" horiz-adv-x="1740" 
d="M868 -25q-166 0 -303 58.5t-235.5 159t-153.5 234.5t-55 286v4q0 309 155.5 465.5t293 216t303 59.5t303 -58.5t235.5 -158.5t153.5 -234.5t55.5 -285.5v-4q0 -307 -155.5 -465t-293 -217.5t-303.5 -59.5zM1356 713v4q0 215 -139 362.5t-349 147.5t-346.5 -147.5
t-136.5 -358.5v-4q0 -215 139 -362.5t349 -147.5t346.5 147.5t136.5 358.5zM516 1788l225 100l217 -336h-192z" />
    <glyph glyph-name="Oacute" unicode="&#xd3;" horiz-adv-x="1740" 
d="M868 -25q-166 0 -303 58.5t-235.5 159t-153.5 234.5t-55 286v4q0 309 155.5 465.5t293 216t303 59.5t303 -58.5t235.5 -158.5t153.5 -234.5t55.5 -285.5v-4q0 -307 -155.5 -465t-293 -217.5t-303.5 -59.5zM1356 713v4q0 215 -139 362.5t-349 147.5t-346.5 -147.5
t-136.5 -358.5v-4q0 -215 139 -362.5t349 -147.5t346.5 147.5t136.5 358.5zM999 1888l226 -100l-250 -236h-193z" />
    <glyph glyph-name="Ocircumflex" unicode="&#xd4;" horiz-adv-x="1740" 
d="M868 -25q-166 0 -303 58.5t-235.5 159t-153.5 234.5t-55 286v4q0 309 155.5 465.5t293 216t303 59.5t303 -58.5t235.5 -158.5t153.5 -234.5t55.5 -285.5v-4q0 -307 -155.5 -465t-293 -217.5t-303.5 -59.5zM1356 713v4q0 215 -139 362.5t-349 147.5t-346.5 -147.5
t-136.5 -358.5v-4q0 -215 139 -362.5t349 -147.5t346.5 147.5t136.5 358.5zM756 1851h229l238 -299h-197l-158 138l-157 -138h-193z" />
    <glyph glyph-name="Otilde" unicode="&#xd5;" horiz-adv-x="1740" 
d="M868 -25q-166 0 -303 58.5t-235.5 159t-153.5 234.5t-55 286v4q0 309 155.5 465.5t293 216t303 59.5t303 -58.5t235.5 -158.5t153.5 -234.5t55.5 -285.5v-4q0 -307 -155.5 -465t-293 -217.5t-303.5 -59.5zM1356 713v4q0 215 -139 362.5t-349 147.5t-346.5 -147.5
t-136.5 -358.5v-4q0 -215 139 -362.5t349 -147.5t346.5 147.5t136.5 358.5zM713 1829q58 0 129 -28.5t104 -41t70 -12.5t59.5 24.5t44.5 77.5l137 -43q-35 -123 -85 -188.5t-129 -65.5t-147.5 28t-102 41t-69.5 13t-58.5 -24.5t-44.5 -77.5l-138 41q35 125 85 190.5
t145 65.5z" />
    <glyph glyph-name="Odieresis" unicode="&#xd6;" horiz-adv-x="1740" 
d="M868 -25q-166 0 -303 58.5t-235.5 159t-153.5 234.5t-55 286v4q0 309 155.5 465.5t293 216t303 59.5t303 -58.5t235.5 -158.5t153.5 -234.5t55.5 -285.5v-4q0 -307 -155.5 -465t-293 -217.5t-303.5 -59.5zM1356 713v4q0 215 -139 362.5t-349 147.5t-346.5 -147.5
t-136.5 -358.5v-4q0 -215 139 -362.5t349 -147.5t346.5 147.5t136.5 358.5zM948 1794h252v-242h-252v242zM541 1794h252v-242h-252v242z" />
    <glyph glyph-name="Oslash" unicode="&#xd8;" horiz-adv-x="1740" 
d="M1620 721v-4q0 -307 -155.5 -465t-293 -217.5t-303.5 -59.5q-234 0 -417 123l-99 -108h-248l203 227q-186 203 -186 496v4q0 309 155.5 465.5t293 216t302.5 59.5q238 0 418 -123l99 109h247l-202 -230q186 -203 186 -493zM381 721v-4q0 -174 94 -305l655 737
q-111 82 -262 82q-212 0 -349.5 -148.5t-137.5 -361.5zM872 203q213 0 350.5 148.5t137.5 361.5v4q0 174 -94 305l-656 -737q111 -82 262 -82z" />
    <glyph glyph-name="Ugrave" unicode="&#xd9;" horiz-adv-x="1550" 
d="M162 608v826h252v-816q0 -201 96 -305t265 -104t265.5 100.5t96.5 298.5v826h252v-813q0 -311 -163.5 -477.5t-452.5 -166.5q-285 0 -448 163t-163 468zM449 1778l225 100l217 -336h-193z" />
    <glyph glyph-name="Uacute" unicode="&#xda;" horiz-adv-x="1550" 
d="M162 608v826h252v-816q0 -201 96 -305t265 -104t265.5 100.5t96.5 298.5v826h252v-813q0 -311 -163.5 -477.5t-452.5 -166.5q-285 0 -448 163t-163 468zM877 1878l225 -100l-250 -236h-193z" />
    <glyph glyph-name="Ucircumflex" unicode="&#xdb;" horiz-adv-x="1550" 
d="M162 608v826h252v-816q0 -201 96 -305t265 -104t265.5 100.5t96.5 298.5v826h252v-813q0 -311 -163.5 -477.5t-452.5 -166.5q-285 0 -448 163t-163 468zM662 1849h229l237 -299h-196l-158 138l-158 -138h-192z" />
    <glyph glyph-name="Udieresis" unicode="&#xdc;" horiz-adv-x="1550" 
d="M162 608v826h252v-816q0 -201 96 -305t265 -104t265.5 100.5t96.5 298.5v826h252v-813q0 -311 -163.5 -477.5t-452.5 -166.5q-285 0 -448 163t-163 468zM854 1792h252v-242h-252v242zM446 1792h252v-242h-252v242z" />
    <glyph glyph-name="Yacute" unicode="&#xdd;" horiz-adv-x="1466" 
d="M860 0h-254v565l-569 869h297l401 -635l406 635h289l-570 -863v-571zM854 1878l225 -100l-250 -236h-192z" />
    <glyph glyph-name="Thorn" unicode="&#xde;" horiz-adv-x="1378" 
d="M184 1434h252v-226h314q252 0 398 -130.5t146 -346.5v-4q0 -234 -161 -361.5t-412 -127.5h-285v-238h-252v1434zM729 463q143 0 226 72.5t83 185.5v4q0 127 -84 191.5t-225 64.5h-293v-518h293z" />
    <glyph glyph-name="germandbls" unicode="&#xdf;" horiz-adv-x="1269" 
d="M922 408v4q0 100 -87 158.5t-229 74.5v168q98 47 165 114.5t67 170.5v4q0 90 -56.5 143t-154.5 53t-162 -70.5t-64 -191.5v-1036h-245v1028q0 223 131 352t345 129t332.5 -108.5t118.5 -276.5v-4q0 -187 -90 -256t-135 -94q215 -73 263 -181t48 -183v-5
q0 -198 -151 -305.5t-412 -99.5v190q150 4 233 60.5t83 161.5z" />
    <glyph glyph-name="agrave" unicode="&#xe0;" horiz-adv-x="1202" 
d="M819 645q0 232 -276 232q-139 0 -299 -68l-68 199q90 41 184.5 65.5t227.5 24.5q242 0 358.5 -120t116.5 -337v-641h-246v133q-130 -156 -350 -156q-163 0 -274 88.5t-111 245.5v4q0 175 119.5 265t297.5 90t320 -45v20zM584 496q-126 0 -191 -45t-65 -123v-4
q0 -78 61 -119t135 -41q135 0 217 62.5t82 164.5v62q-113 43 -239 43zM276 1454l226 100l217 -335h-193z" />
    <glyph glyph-name="aacute" unicode="&#xe1;" horiz-adv-x="1202" 
d="M819 645q0 232 -276 232q-139 0 -299 -68l-68 199q90 41 184.5 65.5t227.5 24.5q242 0 358.5 -120t116.5 -337v-641h-246v133q-130 -156 -350 -156q-163 0 -274 88.5t-111 245.5v4q0 175 119.5 265t297.5 90t320 -45v20zM584 496q-126 0 -191 -45t-65 -123v-4
q0 -78 61 -119t135 -41q135 0 217 62.5t82 164.5v62q-113 43 -239 43zM698 1554l226 -100l-250 -235h-193z" />
    <glyph glyph-name="acircumflex" unicode="&#xe2;" horiz-adv-x="1202" 
d="M819 645q0 232 -276 232q-139 0 -299 -68l-68 199q90 41 184.5 65.5t227.5 24.5q242 0 358.5 -120t116.5 -337v-641h-246v133q-130 -156 -350 -156q-163 0 -274 88.5t-111 245.5v4q0 175 119.5 265t297.5 90t320 -45v20zM584 496q-126 0 -191 -45t-65 -123v-4
q0 -78 61 -119t135 -41q135 0 217 62.5t82 164.5v62q-113 43 -239 43zM485 1518h230l237 -299h-196l-158 137l-158 -137h-192z" />
    <glyph glyph-name="atilde" unicode="&#xe3;" horiz-adv-x="1202" 
d="M819 645q0 232 -276 232q-139 0 -299 -68l-68 199q90 41 184.5 65.5t227.5 24.5q242 0 358.5 -120t116.5 -337v-641h-246v133q-130 -156 -350 -156q-163 0 -274 88.5t-111 245.5v4q0 175 119.5 265t297.5 90t320 -45v20zM584 496q-126 0 -191 -45t-65 -123v-4
q0 -78 61 -119t135 -41q135 0 217 62.5t82 164.5v62q-113 43 -239 43zM444 1495q57 0 129 -28.5t105.5 -41t69.5 -12.5t58.5 24.5t45.5 78.5l137 -43q-35 -123 -85 -188.5t-130 -65.5t-147.5 27.5t-101 40.5t-69.5 13t-58.5 -24.5t-45.5 -77.5l-137 41q35 125 85 190.5
t144 65.5z" />
    <glyph glyph-name="adieresis" unicode="&#xe4;" horiz-adv-x="1202" 
d="M819 645q0 232 -276 232q-139 0 -299 -68l-68 199q90 41 184.5 65.5t227.5 24.5q242 0 358.5 -120t116.5 -337v-641h-246v133q-130 -156 -350 -156q-163 0 -274 88.5t-111 245.5v4q0 175 119.5 265t297.5 90t320 -45v20zM584 496q-126 0 -191 -45t-65 -123v-4
q0 -78 61 -119t135 -41q135 0 217 62.5t82 164.5v62q-113 43 -239 43zM678 1460h252v-241h-252v241zM270 1460h252v-241h-252v241z" />
    <glyph glyph-name="aring" unicode="&#xe5;" horiz-adv-x="1202" 
d="M819 645q0 232 -276 232q-139 0 -299 -68l-68 199q90 41 184.5 65.5t227.5 24.5q242 0 358.5 -120t116.5 -337v-641h-246v133q-130 -156 -350 -156q-163 0 -274 88.5t-111 245.5v4q0 175 119.5 265t297.5 90t320 -45v20zM584 496q-126 0 -191 -45t-65 -123v-4
q0 -78 61 -119t135 -41q135 0 217 62.5t82 164.5v62q-113 43 -239 43zM436 1281.5q-69 67.5 -69 156.5v4q0 89 69 156t164 67t164.5 -66.5t69.5 -156.5v-4q0 -89 -69.5 -156.5t-164.5 -67.5t-164 67.5zM600 1313q53 0 90 36.5t37 88.5v4q0 51 -37 88t-90 37t-90 -37t-37 -88
v-4q0 -51 37 -88t90 -37z" />
    <glyph glyph-name="ae" unicode="&#xe6;" horiz-adv-x="1949" 
d="M82 311v4q0 175 119.5 265t294.5 90t317 -45v20q0 231 -264 232q-145 0 -305 -68l-68 199q90 41 184.5 65.5t225.5 24.5t229 -46t148 -132q141 184 381 184t374.5 -167.5t134.5 -414.5v-26q0 -25 -2 -43h-794q23 -133 106 -204t189 -71t174.5 33t134.5 96l145 -129
q-172 -203 -444 -203q-127 0 -235.5 49.5t-182.5 135.5q-222 -183 -452 -183q-177 0 -293.5 88t-116.5 246zM1335 901q-117 0 -191.5 -79t-90.5 -206h557q-20 194 -116.5 239.5t-158.5 45.5zM534 164q164 0 318 139q-32 80 -39 156q-109 37 -233 37t-188 -45t-64 -123v-4
q0 -78 59 -119t147 -41z" />
    <glyph glyph-name="ccedilla" unicode="&#xe7;" horiz-adv-x="1169" 
d="M936 752q-130 135 -268 135q-146 0 -235 -100.5t-89 -243.5v-4q0 -148 92 -248.5t232 -100.5q88 0 154.5 38t125.5 98l150 -148q-76 -82 -168 -137t-232 -64l-133 -315l-217 90l164 242q-186 46 -301 196.5t-115 344.5v4q0 235 161 400t400 165q154 0 255.5 -51.5
t177.5 -134.5z" />
    <glyph glyph-name="egrave" unicode="&#xe8;" horiz-adv-x="1236" 
d="M96 537v4q0 236 150 399.5t388 163.5t373.5 -168t135.5 -414q0 -33 -4 -69h-795q20 -133 105.5 -204t191.5 -71t174 33t133 96l146 -129q-172 -203 -443 -203q-236 0 -395.5 157.5t-159.5 404.5zM623 901q-115 0 -190 -79t-91 -206h555q-20 194 -116.5 239.5t-157.5 45.5
zM285 1454l225 100l217 -335h-192z" />
    <glyph glyph-name="eacute" unicode="&#xe9;" horiz-adv-x="1236" 
d="M96 537v4q0 236 150 399.5t388 163.5t373.5 -168t135.5 -414q0 -33 -4 -69h-795q20 -133 105.5 -204t191.5 -71t174 33t133 96l146 -129q-172 -203 -443 -203q-236 0 -395.5 157.5t-159.5 404.5zM623 901q-115 0 -190 -79t-91 -206h555q-20 194 -116.5 239.5t-157.5 45.5
zM727 1554l225 -100l-250 -235h-192z" />
    <glyph glyph-name="ecircumflex" unicode="&#xea;" horiz-adv-x="1236" 
d="M96 537v4q0 236 150 399.5t388 163.5t373.5 -168t135.5 -414q0 -33 -4 -69h-795q20 -133 105.5 -204t191.5 -71t174 33t133 96l146 -129q-172 -203 -443 -203q-236 0 -395.5 157.5t-159.5 404.5zM623 901q-115 0 -190 -79t-91 -206h555q-20 194 -116.5 239.5t-157.5 45.5
zM506 1518h229l238 -299h-197l-158 137l-157 -137h-193z" />
    <glyph glyph-name="edieresis" unicode="&#xeb;" horiz-adv-x="1236" 
d="M96 537v4q0 236 150 399.5t388 163.5t373.5 -168t135.5 -414q0 -33 -4 -69h-795q20 -133 105.5 -204t191.5 -71t174 33t133 96l146 -129q-172 -203 -443 -203q-236 0 -395.5 157.5t-159.5 404.5zM623 901q-115 0 -190 -79t-91 -206h555q-20 194 -116.5 239.5t-157.5 45.5
zM698 1460h252v-241h-252v241zM291 1460h252v-241h-252v241z" />
    <glyph glyph-name="igrave" unicode="&#xec;" horiz-adv-x="585" 
d="M170 1081h248v-1081h-248v1081zM-43 1454l225 100l217 -335h-192z" />
    <glyph glyph-name="iacute" unicode="&#xed;" horiz-adv-x="585" 
d="M170 1081h248v-1081h-248v1081zM403 1554l226 -100l-250 -235h-193z" />
    <glyph glyph-name="icircumflex" unicode="&#xee;" horiz-adv-x="585" 
d="M170 1081h248v-1081h-248v1081zM178 1518h230l237 -299h-196l-158 137l-158 -137h-192z" />
    <glyph glyph-name="idieresis" unicode="&#xef;" horiz-adv-x="585" 
d="M170 1081h248v-1081h-248v1081zM371 1460h252v-241h-252v241zM-37 1460h252v-241h-252v241z" />
    <glyph glyph-name="eth" unicode="&#xf0;" horiz-adv-x="1314" 
d="M654 -25q-242 0 -400 154t-158 379v4q0 210 134.5 346.5t340.5 136.5q152 0 285 -84l-215 293l-244 -108l-98 129l248 108l-119 162h285l49 -72l203 88l96 -129l-209 -90l182 -264q92 -129 136 -244.5t44 -253.5v-4q0 -232 -111.5 -346t-217 -159.5t-231.5 -45.5z
M971 502v4q0 130 -90.5 218.5t-229.5 88.5t-225 -86t-86 -221v-4q0 -130 91 -223t227 -93q138 0 225.5 91.5t87.5 224.5z" />
    <glyph glyph-name="ntilde" unicode="&#xf1;" horiz-adv-x="1269" 
d="M730 1104q195 0 295.5 -112.5t100.5 -303.5v-688h-247v614q0 127 -60.5 196t-170.5 69t-177.5 -71t-67.5 -198v-610h-247v1081h247v-168q132 191 327 191zM485 1495q55 0 129 -28.5t107 -41t69 -12.5t59 24.5t46 78.5l137 -43q-35 -123 -85 -188.5t-130 -65.5
t-147.5 27.5t-101 40.5t-70.5 13t-59.5 -24.5t-45.5 -77.5l-137 41q35 125 85 190.5t144 65.5z" />
    <glyph glyph-name="ograve" unicode="&#xf2;" horiz-adv-x="1345" 
d="M671 -25q-246 0 -410.5 162.5t-164.5 397.5v4q0 233 166 399t413.5 166t410.5 -164.5t163 -396.5v-4q0 -232 -120.5 -352.5t-227 -166t-230.5 -45.5zM1001 535v4q0 146 -94.5 247t-237 101t-234 -98t-91.5 -246v-4q0 -144 94 -246.5t238 -102.5q143 0 234 99.5t91 245.5z
M326 1454l225 100l217 -335h-193z" />
    <glyph glyph-name="oacute" unicode="&#xf3;" horiz-adv-x="1345" 
d="M671 -25q-246 0 -410.5 162.5t-164.5 397.5v4q0 233 166 399t413.5 166t410.5 -164.5t163 -396.5v-4q0 -232 -120.5 -352.5t-227 -166t-230.5 -45.5zM1001 535v4q0 146 -94.5 247t-237 101t-234 -98t-91.5 -246v-4q0 -144 94 -246.5t238 -102.5q143 0 234 99.5t91 245.5z
M793 1554l225 -100l-250 -235h-193z" />
    <glyph glyph-name="ocircumflex" unicode="&#xf4;" horiz-adv-x="1345" 
d="M671 -25q-246 0 -410.5 162.5t-164.5 397.5v4q0 233 166 399t413.5 166t410.5 -164.5t163 -396.5v-4q0 -232 -120.5 -352.5t-227 -166t-230.5 -45.5zM1001 535v4q0 146 -94.5 247t-237 101t-234 -98t-91.5 -246v-4q0 -144 94 -246.5t238 -102.5q143 0 234 99.5t91 245.5z
M557 1518h229l238 -299h-197l-157 137l-158 -137h-193z" />
    <glyph glyph-name="otilde" unicode="&#xf5;" horiz-adv-x="1345" 
d="M671 -25q-246 0 -410.5 162.5t-164.5 397.5v4q0 233 166 399t413.5 166t410.5 -164.5t163 -396.5v-4q0 -232 -120.5 -352.5t-227 -166t-230.5 -45.5zM1001 535v4q0 146 -94.5 247t-237 101t-234 -98t-91.5 -246v-4q0 -144 94 -246.5t238 -102.5q143 0 234 99.5t91 245.5z
M514 1495q57 0 129 -28.5t104.5 -41t69.5 -12.5t59.5 24.5t45.5 78.5l137 -43q-35 -123 -85 -188.5t-130 -65.5t-147.5 27.5t-101 40.5t-69.5 13t-59 -24.5t-45 -77.5l-137 41q35 125 85 190.5t144 65.5z" />
    <glyph glyph-name="odieresis" unicode="&#xf6;" horiz-adv-x="1345" 
d="M671 -25q-246 0 -410.5 162.5t-164.5 397.5v4q0 233 166 399t413.5 166t410.5 -164.5t163 -396.5v-4q0 -232 -120.5 -352.5t-227 -166t-230.5 -45.5zM1001 535v4q0 146 -94.5 247t-237 101t-234 -98t-91.5 -246v-4q0 -144 94 -246.5t238 -102.5q143 0 234 99.5t91 245.5z
M750 1460h251v-241h-251v241zM342 1460h252v-241h-252v241z" />
    <glyph glyph-name="oslash" unicode="&#xf8;" horiz-adv-x="1345" 
d="M1249 543v-4q0 -232 -166 -398t-413 -166q-165 0 -310 88l-69 -73h-225l163 182q-133 156 -133 363v4q0 233 166 399t412 166q169 0 309 -88l72 78h225l-166 -187q135 -147 135 -364zM678 893q-158 0 -249 -102.5t-91 -247.5v-4q0 -102 51 -187l447 492q-74 49 -158 49z
M665 186q158 0 250.5 102t92.5 247v4q0 95 -52 188l-448 -494q72 -47 157 -47z" />
    <glyph glyph-name="ugrave" unicode="&#xf9;" horiz-adv-x="1269" 
d="M528 -23q-184 0 -284.5 113t-100.5 303v688h248v-614q0 -127 60.5 -195.5t170.5 -68.5t177 70.5t67 197.5v610h248v-1081h-248v168q-53 -78 -133 -134.5t-205 -56.5zM313 1452l226 100l217 -335h-193z" />
    <glyph glyph-name="uacute" unicode="&#xfa;" horiz-adv-x="1269" 
d="M528 -23q-184 0 -284.5 113t-100.5 303v688h248v-614q0 -127 60.5 -195.5t170.5 -68.5t177 70.5t67 197.5v610h248v-1081h-248v168q-53 -78 -133 -134.5t-205 -56.5zM727 1552l225 -100l-250 -235h-192z" />
    <glyph glyph-name="ucircumflex" unicode="&#xfb;" horiz-adv-x="1269" 
d="M528 -23q-184 0 -284.5 113t-100.5 303v688h248v-614q0 -127 60.5 -195.5t170.5 -68.5t177 70.5t67 197.5v610h248v-1081h-248v168q-53 -78 -133 -134.5t-205 -56.5zM520 1518h230l237 -299h-196l-158 137l-158 -137h-192z" />
    <glyph glyph-name="udieresis" unicode="&#xfc;" horiz-adv-x="1269" 
d="M528 -23q-184 0 -284.5 113t-100.5 303v688h248v-614q0 -127 60.5 -195.5t170.5 -68.5t177 70.5t67 197.5v610h248v-1081h-248v168q-53 -78 -133 -134.5t-205 -56.5zM713 1460h252v-241h-252v241zM305 1460h252v-241h-252v241z" />
    <glyph glyph-name="yacute" unicode="&#xfd;" horiz-adv-x="1220" 
d="M344 -125q59 0 94 26.5t66 98.5l-451 1081h264l308 -802l280 802h258l-430 -1112q-66 -168 -146.5 -235.5t-212.5 -67.5t-253 66l84 184q80 -41 139 -41zM717 1552l225 -100l-250 -235h-192z" />
    <glyph glyph-name="thorn" unicode="&#xfe;" horiz-adv-x="1372" 
d="M403 901q139 203 355 203t366 -152t150 -409v-4q0 -258 -148.5 -410t-355.5 -152q-133 0 -221 57.5t-146 133.5v-496h-247v1823h247v-594zM1022 539v4q0 154 -89.5 250t-220.5 96t-223 -98.5t-92 -247.5v-4q0 -153 92.5 -249.5t222.5 -96.5t220 94t90 252z" />
    <glyph glyph-name="ydieresis" unicode="&#xff;" horiz-adv-x="1220" 
d="M344 -125q59 0 94 26.5t66 98.5l-451 1081h264l308 -802l280 802h258l-430 -1112q-66 -168 -146.5 -235.5t-212.5 -67.5t-253 66l84 184q80 -41 139 -41zM688 1460h252v-241h-252v241zM281 1460h251v-241h-251v241z" />
    <glyph glyph-name="dotlessi" unicode="&#x131;" horiz-adv-x="585" 
d="M170 1081h248v-1081h-248v1081z" />
    <glyph glyph-name="Lslash" unicode="&#x141;" horiz-adv-x="1329" 
d="M246 1434h250v-553l413 123v-234l-413 -125v-416h755v-229h-1005v569l-154 -45v234l154 47v629z" />
    <glyph glyph-name="lslash" unicode="&#x142;" horiz-adv-x="708" 
d="M231 1495h246v-580l156 48v-236l-156 -47v-680h-246v608l-155 -47v236l155 47v651z" />
    <glyph glyph-name="OE" unicode="&#x152;" horiz-adv-x="2248" 
d="M883 0q-334 0 -548 202.5t-214 510.5v4q0 308 215 512.5t547 204.5h1241v-226h-766v-372h674v-226h-674v-385h776v-225h-1251zM1106 229v975h-223q-226 0 -362 -136t-136 -347v-4q0 -213 137.5 -350.5t360.5 -137.5h223z" />
    <glyph glyph-name="oe" unicode="&#x153;" horiz-adv-x="2129" 
d="M669 -25q-129 0 -231 44t-178 120t-120 178.5t-44 217.5v4q0 233 166 399t406 166q139 0 250.5 -61.5t181.5 -161.5q68 102 175 162.5t239 60.5q249 0 384.5 -168t135.5 -414q0 -33 -4 -69h-795q23 -133 107 -204t190 -71t175 33t134 96l146 -129q-172 -203 -443 -203
q-141 0 -258 60.5t-188 167.5q-72 -104 -186 -166t-243 -62zM1324 822q-75 -79 -91 -206h557q-13 123 -85 204t-189 81t-192 -79zM987 535v4q0 144 -93 246t-232 102t-228.5 -100t-89.5 -244v-4q0 -145 91.5 -247t233.5 -102q139 0 228.5 100t89.5 245z" />
    <glyph glyph-name="Scaron" unicode="&#x160;" horiz-adv-x="1310" 
d="M240 389q215 -186 443 -186q126 0 194.5 49t68.5 131v4q0 78 -65.5 127.5t-219.5 83.5q-153 35 -242 68.5t-181.5 107.5t-92.5 260v4q0 183 137.5 299.5t352.5 116.5q293 0 520 -180l-135 -191q-201 148 -389 148q-111 0 -172.5 -49t-61.5 -121v-4q0 -86 67 -131t227 -84
q159 -40 333 -109t174 -321v-4q0 -199 -140.5 -313.5t-371.5 -114.5q-346 0 -598 229zM303 1851h197l157 -135l158 135h193l-238 -299h-229z" />
    <glyph glyph-name="scaron" unicode="&#x161;" 
d="M500 903q-72 0 -112 -30.5t-40 -77.5v-4q0 -69 98.5 -103.5t151.5 -50.5q140 -42 235 -112.5t95 -200.5v-5q0 -165 -113 -252t-289 -87q-253 0 -458 161l110 168q177 -133 354 -133q80 0 124 32t44 85v4q0 58 -59 86.5t-150 54.5q-91 27 -230.5 79t-139.5 249v4
q0 151 109.5 240.5t275.5 89.5q211 0 397 -123l-98 -176q-169 102 -305 102zM168 1518h197l157 -136l158 136h192l-237 -299h-229z" />
    <glyph glyph-name="Ydieresis" unicode="&#x178;" horiz-adv-x="1466" 
d="M860 0h-254v565l-569 869h297l401 -635l406 635h289l-570 -863v-571zM811 1792h252v-242h-252v242zM403 1792h252v-242h-252v242z" />
    <glyph glyph-name="Zcaron" unicode="&#x17d;" horiz-adv-x="1437" 
d="M160 1210v224h1147v-187l-846 -1024h846v-223h-1174v186l846 1024h-819zM375 1851h196l158 -135l158 135h192l-237 -299h-230z" />
    <glyph glyph-name="zcaron" unicode="&#x17e;" horiz-adv-x="1146" 
d="M129 879v202h918v-170l-625 -708h625v-203h-941v170l625 709h-602zM238 1518h196l158 -136l158 136h192l-237 -299h-230z" />
    <glyph glyph-name="florin" unicode="&#x192;" horiz-adv-x="1079" 
d="M860 1233q-68 0 -106.5 -37t-55.5 -121l-24 -139h260v-207h-297l-78 -432q-29 -166 -114.5 -236.5t-245.5 -70.5q-73 0 -115 10v203q44 -6 96 -6q113 0 135 137l72 395h-164v207h199l37 190q29 156 110.5 237t247.5 81q107 0 189 -23v-209q-78 21 -146 21z" />
    <glyph glyph-name="circumflex" unicode="&#x2c6;" 
d="M397 1518h230l237 -299h-196l-158 137l-158 -137h-192z" />
    <glyph glyph-name="caron" unicode="&#x2c7;" 
d="M160 1518h196l158 -136l158 136h192l-237 -299h-230z" />
    <glyph glyph-name="breve" unicode="&#x2d8;" 
d="M512 1389q141 0 180 129h170q-10 -145 -106.5 -224.5t-243.5 -79.5t-243.5 79t-106.5 225h170q39 -129 180 -129z" />
    <glyph glyph-name="dotaccent" unicode="&#x2d9;" 
d="M383 1462h258v-243h-258v243z" />
    <glyph glyph-name="ring" unicode="&#x2da;" 
d="M348 1281q-69 67 -69 157v4q0 91 69.5 157t163.5 66t163.5 -66t69.5 -157v-4q0 -90 -69 -157t-164 -67t-164 67zM512 1313q53 0 90 36.5t37 88.5v4q0 51 -37 88t-90 37t-90 -37t-37 -88v-4q0 -51 37 -88t90 -37z" />
    <glyph glyph-name="ogonek" unicode="&#x2db;" 
d="M360 -115q0 63 31 135h176q-12 -48 -12 -104t45 -93.5t150 -43.5v-115q-190 -12 -290 47.5t-100 173.5z" />
    <glyph glyph-name="tilde" unicode="&#x2dc;" 
d="M354 1495q57 0 129 -28.5t105.5 -41t69.5 -12.5t58.5 24.5t45.5 78.5l137 -43q-35 -123 -85 -188.5t-130 -65.5t-147.5 27.5t-101 40.5t-69.5 13t-58.5 -24.5t-45.5 -77.5l-137 41q35 125 85 190.5t144 65.5z" />
    <glyph glyph-name="hungarumlaut" unicode="&#x2dd;" 
d="M705 1554l217 -100l-250 -235h-185zM328 1554l217 -100l-246 -235h-184z" />
    <glyph glyph-name="Omega" unicode="&#x3a9;" horiz-adv-x="1540" 
d="M1368 1296q-143 0 -143 -163v-60h286v-205h-282v-868h-248v868h-137v207h137v78q0 180 87 267t243 87q109 0 202 -28v-209q-80 26 -145 26zM598 1296q-143 0 -143 -163v-60h286v-205h-282v-868h-248v868h-137v207h137v78q0 180 87 267t245 87q104 0 200 -28v-209
q-80 26 -145 26z" />
    <glyph glyph-name="Omega" unicode="&#x2126;" horiz-adv-x="1540" 
d="M1368 1296q-143 0 -143 -163v-60h286v-205h-282v-868h-248v868h-137v207h137v78q0 180 87 267t243 87q109 0 202 -28v-209q-80 26 -145 26zM598 1296q-143 0 -143 -163v-60h286v-205h-282v-868h-248v868h-137v207h137v78q0 180 87 267t245 87q104 0 200 -28v-209
q-80 26 -145 26z" />
    <glyph glyph-name="pi" unicode="&#x3c0;" horiz-adv-x="1699" 
d="M848 -25q-156 0 -291 58.5t-234.5 159t-156.5 234.5t-57 286v4q0 152 57 286t157.5 235t236.5 160.5t292 59.5t291 -58.5t234.5 -158.5t156.5 -234.5t57 -285.5v-4q0 -152 -57 -286t-157.5 -235.5t-236.5 -161t-292 -59.5zM848 49q141 0 263 53.5t211 143.5t140 212
t51 259v4q0 137 -50 258t-139 211t-210 142t-262 52t-263 -53t-211 -143t-140.5 -212t-51.5 -259v-4q0 -137 50.5 -258t139.5 -211t210 -142.5t262 -52.5zM586 1120h313q139 0 220 -70.5t81 -191.5v-4q0 -126 -89.5 -196t-227.5 -70h-146v-246h-151v778zM887 721
q74 0 117 36t43 95v4q0 63 -43 96t-117 33h-150v-264h150z" />
    <glyph glyph-name="endash" unicode="&#x2013;" horiz-adv-x="1081" 
d="M115 745h852v-235h-852v235z" />
    <glyph glyph-name="emdash" unicode="&#x2014;" horiz-adv-x="1839" 
d="M115 745h1609v-235h-1609v235z" />
    <glyph glyph-name="quoteleft" unicode="&#x2018;" horiz-adv-x="550" 
d="M129 1104q0 172 80 250t235 90l27 -107q-188 -35 -174 -190h104v-283h-272v240z" />
    <glyph glyph-name="quoteright" unicode="&#x2019;" horiz-adv-x="550" 
d="M150 1153v281h272v-240q0 -172 -80 -250t-236 -90l-26 107q188 35 174 192h-104z" />
    <glyph glyph-name="quotesinglbase" unicode="&#x201a;" horiz-adv-x="550" 
d="M139 0v281h273v-238q0 -172 -80 -250t-236 -90l-26 104q188 37 174 193h-105z" />
    <glyph glyph-name="quotedblleft" unicode="&#x201c;" horiz-adv-x="1026" 
d="M604 1104q0 172 80 250t236 90l26 -107q-188 -35 -176 -190h107v-283h-273v240zM129 1104q0 172 80 250t235 90l27 -107q-188 -35 -174 -190h104v-283h-272v240z" />
    <glyph glyph-name="quotedblright" unicode="&#x201d;" horiz-adv-x="1026" 
d="M625 1153v281h272v-240q0 -172 -80 -250t-235 -90l-27 107q188 35 174 192h-104zM150 1153v281h272v-240q0 -172 -80 -250t-236 -90l-26 107q188 35 174 192h-104z" />
    <glyph glyph-name="quotedblbase" unicode="&#x201e;" horiz-adv-x="1026" 
d="M614 0v281h273v-238q0 -172 -80 -250t-236 -90l-26 104q188 37 174 193h-105zM139 0v281h273v-238q0 -172 -80 -250t-236 -90l-26 104q188 37 174 193h-105z" />
    <glyph glyph-name="dagger" unicode="&#x2020;" horiz-adv-x="839" 
d="M365 1051l-250 -19v146l247 -19l-24 275h164l-25 -275l248 19v-146l-250 19l19 -564h-148z" />
    <glyph glyph-name="daggerdbl" unicode="&#x2021;" horiz-adv-x="880" 
d="M383 274l-248 -18v145l248 -18l-16 334l16 334l-248 -19v146l248 -19l-25 275h164l-24 -275l247 19v-146l-247 19l16 -334l-16 -334l247 18v-145l-247 18l24 -274h-164z" />
    <glyph glyph-name="bullet" unicode="&#x2022;" horiz-adv-x="1005" 
d="M213 719v4q0 117 85 202t203.5 85t205 -85t86.5 -202v-4q0 -120 -85.5 -203.5t-204.5 -83.5t-204.5 83.5t-85.5 203.5z" />
    <glyph glyph-name="ellipsis" unicode="&#x2026;" horiz-adv-x="1622" 
d="M1217 274h266v-274h-266v274zM678 274h266v-274h-266v274zM139 274h267v-274h-267v274z" />
    <glyph glyph-name="perthousand" unicode="&#x2030;" horiz-adv-x="2514" 
d="M98 1079v4q0 153 96.5 260t244.5 107t241.5 -107t93.5 -256v-4q0 -151 -96 -258.5t-243.5 -107.5t-242 106t-94.5 256zM1292 1434h203l-1049 -1434h-202zM1741 346v4q0 151 95 259t243 108q149 0 243.5 -107.5t94.5 -255.5v-4q0 -151 -96.5 -258.5t-245.5 -107.5
t-241.5 105t-92.5 257zM965 346v4q0 153 96.5 260t243.5 107t241 -107t94 -256v-4q0 -153 -96 -259.5t-244 -106.5t-241.5 106.5t-93.5 255.5zM439 874q71 0 112 60.5t41 144.5v4q0 86 -44 147.5t-115 61.5t-111.5 -60.5t-40.5 -144.5v-4q0 -88 43.5 -148.5t114.5 -60.5z
M2082 141q71 0 111.5 60.5t40.5 144.5v4q0 86 -44 147.5t-114 61.5t-111.5 -60.5t-41.5 -144.5v-4q0 -88 44 -148.5t115 -60.5zM1306 141q71 0 111.5 60.5t40.5 144.5v4q0 86 -44 147.5t-115 61.5t-111.5 -60.5t-40.5 -144.5v-4q0 -88 44 -148.5t115 -60.5z" />
    <glyph glyph-name="guilsinglleft" unicode="&#x2039;" horiz-adv-x="724" 
d="M90 532v17l340 450l188 -96l-270 -360l270 -363l-188 -96z" />
    <glyph glyph-name="guilsinglright" unicode="&#x203a;" horiz-adv-x="724" 
d="M109 178l270 361l-270 362l188 98l338 -450v-17l-338 -448z" />
    <glyph glyph-name="fraction" unicode="&#x2044;" horiz-adv-x="940" 
d="M813 1552h225l-956 -1753h-225z" />
    <glyph glyph-name="fraction" unicode="&#x2215;" horiz-adv-x="940" 
d="M813 1552h225l-956 -1753h-225z" />
    <glyph glyph-name="trademark" unicode="&#x2122;" horiz-adv-x="1413" 
d="M698 1434h129l191 -299l190 299h125v-631h-116v448l-195 -303h-12l-195 303v-448h-117v631zM248 1323h-195v111h510v-111h-194v-520h-121v520z" />
    <glyph glyph-name="radical" unicode="&#x221a;" horiz-adv-x="2125" 
d="M1368 1296q-143 0 -143 -163v-60h286v-205h-282v-868h-248v868h-137v207h137v78q0 180 87 267t243 87q109 0 202 -28v-209q-80 26 -145 26zM598 1296q-143 0 -143 -163v-60h286v-205h-282v-868h-248v868h-137v207h137v78q0 180 87 267t245 87q104 0 200 -28v-209
q-80 26 -145 26zM1708 1495h250v-1495h-250v1495z" />
    <glyph glyph-name="approxequal" unicode="&#x2248;" horiz-adv-x="2125" 
d="M1700 1483h266v-236h-266v236zM1368 1296q-143 0 -143 -163v-60h286v-205h-282v-868h-248v868h-137v207h137v78q0 180 87 267t243 87q109 0 202 -28v-209q-80 26 -145 26zM598 1296q-143 0 -143 -163v-60h286v-205h-282v-868h-248v868h-137v207h137v78q0 180 87 267
t245 87q104 0 200 -28v-209q-80 26 -145 26zM1708 1081h250v-1081h-250v1081z" />
    <glyph glyph-name="NUL" horiz-adv-x="0" 
 />
    <glyph glyph-name="apple" horiz-adv-x="1980" 
d="M207 0v1536h1571v-1536h-1571zM1747 -213l-6 41l-21 -43h-4l-20 43l-6 -41h-13l13 70h2l26 -54l27 54h2l12 -70h-12zM1651 -178q0 -37 -35 -37t-35 35q0 16 10.5 26.5t25.5 10.5t24.5 -10.5t9.5 -24.5zM1530 -215q-37 0 -37 35q0 16 10.5 26.5t24.5 10.5t24 -7l-4 -10
q-6 6 -17 6t-18.5 -7t-7.5 -17q0 -27 27 -27q8 0 20 8l-2 -12q-6 -6 -20 -6zM1411 -213h-12v29l-29 39l12 2l23 -31l18 29h15l-27 -39v-29zM1331 -213v31h-33v-31h-12v68h12v-27h33v27h12v-68h-12zM1253 -168q0 -25 -34 -25v-20h-13v68q47 6 47 -23zM1167 -213l-8 16h-29
l-6 -16h-12l31 70h4l33 -70h-13zM1053 -190v-23h-13v68q47 6 47 -21q0 -14 -14 -20l21 -27h-15l-16 23h-10zM979 -215q-37 0 -37 25.5t11.5 36t25.5 10.5t27 -9l-5 -10q-8 8 -22 8q-25 0 -25 -26t27 -25q4 0 12 4v15h-18v10h31v-31q-12 -8 -27 -8zM880.5 -215
q-34.5 0 -34.5 35q0 16 10 26.5t26 10.5t24.5 -10.5t8.5 -24.5q0 -37 -34.5 -37zM819 -168q0 -25 -35 -25v-20h-12v68q47 6 47 -23zM719 -213h-12v29l-29 39l12 2l23 -31l18 29h14l-26 -39v-29zM662 -156h-25v-57h-12v57h-25v11h62v-11zM522 -215h-2l-22 47l-21 -47h-2
l-24 70l12 2l14 -47l21 47h2l20 -47l15 45h12zM408 -215h-2l-23 47l-21 -47h-2l-24 70l12 2l14 -47l21 47h2l21 -47l14 45h12zM293 -215h-2l-23 47l-20 -47h-2l-25 70l12 2l15 -47l20 47h2l21 -47l14 45h12zM1466 -207q0 -8 -8 -8t-8 8t8 8t8 -8zM582 -207q0 -8 -8.5 -8
t-8.5 8t8.5 8t8.5 -8zM1094 1423q6 0 6 -6v-47q0 -10 -4 -11t-6 1v-4h34v4q-4 -2 -7 -1t-3 11v47q0 6 6 6t14 -7t7 -11h4v8q0 4 -1 8t-1 9q-4 -2 -35 -2.5t-37 2.5l-2 -17v-8h4q9 18 21 18zM981 1360q-10 0 -10 10v21h35v-21q0 -10 -7 -10q-2 -2 -4 0v-4h37v4q-12 -6 -12 10
v43q0 6 6 10h6v4h-37v-4h4q6 -6 7 -10v-18h-35v18q0 6 4 10h6v4h-35v-4h4q6 -6 6 -10v-43q0 -4 -2 -5t-4 -3t-4 -2v-4h35v4zM854 1378q0 10 12 13h8v-23q0 -6 -8 -6h-8q-8 0 -14 6t-6 12l-4 -2l4 -22h61v4q-4 -2 -7 -1t-3 11v43q0 6 4 10h6v4h-59l-4 -20l4 -2q0 4 4 10t14 6
h8q8 0 8 -6v-20h-8q-12 0 -12 10h-4v-27h4zM1694 1278h-1403v-12h1403v12zM1371 1061q54 0 54 48q0 28 -23.5 51.5t-44.5 23.5q-54 0 -54 -45q0 -33 23.5 -55.5t44.5 -22.5zM1206 1100q0 25 -28 35q10 6 10 17t-11 21.5t-35 10.5t-24 -23q0 -12 9 -12t9.5 6t-3 7t-3.5 8
t15 8q20 0 20 -25q0 -8 -4 -12q-33 3 -33 -11t14 -14t25 10q13 -10 13 -34t-25 -24.5t-25 17.5q0 6 7 7l10 -5q8 0 8 10.5t-16 10.5t-17 -21q0 -27 42 -27t42 40zM604 1100q0 25 -29 35q24 15 6.5 32t-41.5 17t-24 -23q0 -12 9 -12t9.5 6t-3 7t-3.5 8t15 8q20 0 20 -25
q0 -8 -4 -12q-33 3 -33 -11t14 -14t25 10q13 -10 13 -34t-25 -24.5t-25 17.5q0 6 7 7l10 -5q8 0 8 10.5t-16 10.5t-17 -21q0 -27 42 -27t42 40zM1679 1069q-16 0 -20 16l-14 72q-3 13 14 17l-2 6h-58l3 -6q15 0 18 -17l6 -31h-49l-6 31q-3 13 14 17l-2 6h-59l2 -6
q17 0 20 -17l15 -72q1 -10 -5 -13t-10 -3l2 -6h60l-2 6q-17 0 -21 16l-6 33h49l6 -33q3 -16 -14 -16l2 -6h59zM942 1098q0 22 16 22h9l6 -35q3 -16 -15 -16l3 -6h59l-2 6q-17 0 -21 16l-14 72q-3 13 14 17l-2 6h-92v-35h8q-2 6 2 12q4 14 25 14h8q10 0 12 -12l7 -33h-9
q-18 0 -24 19h-6l10 -47h6zM295 1149q0 -26 39 -31l-19 -33q-8 -16 -28 -16l2 -6h39l24 47q2 6 10 6l7 -31q1 -10 -5 -13t-10 -3l2 -6h60l-2 6q-17 0 -21 16l-14 72q-3 13 14 17l-2 6h-55q-41 0 -41 -31zM705 1075q1 -26 29 -26t32 13t20 13q6 -14 20 -14t13 5q0 15 -26 19
q-8 6 -9.5 21.5t-7 46.5t-43.5 31q-10 0 -18 -7.5t-8 -15.5t9 -8t9 12.5t12 12.5t17 -36.5t24 -56.5q-23 0 -30 -13t-17 -13t-10 8l4 10q0 10 -10 10t-10 -12zM1694 985h-1403v-12h1403v12zM1694 901h-301v-127h73v57h23v-133h-29v-67h166v67h-29v133h23v-57h74v127z
M1327 901h-166v-70h23l-31 -47l-31 47h21v70h-127v-70h24l76 -94v-39h-29v-67h166v67h-30v41l75 92h29v70zM938 698h-29v133h29v70h-197q-45 0 -70.5 -23.5t-25.5 -58.5t25.5 -58.5t70.5 -23.5h62v-39h-31v-67h166v67zM580 698h-29v133h29v70h-289v-127h84v57h67v-40h-49
v-50h49v-43h-67v58h-84v-125h289v67zM1694 567h-1403v-12h1403v12zM1436 348q54 0 55 48q0 28 -23.5 51.5t-45.5 23.5q-54 0 -54 -45q0 -33 23 -55.5t45 -22.5zM369 434q0 22 18 21q10 0 25 -15l4 4q-16 27 -37 27q-31 0 -29 -47q-14 47 -43 47q-24 0 -24 -25l6 -2
q0 12 18 12q31 1 47 -67q5 -18 -1.5 -25.5t-10.5 -5.5l2 -8h57l-2 8q-16 -8 -20 19q-10 35 -10 57zM1608 385q0 21 16 23h8l6 -35q2 -9 -4 -13t-10 -4l2 -6h60l-3 6q-16 0 -20 17l-14 71q-2 10 4 14t10 3l-2 6h-92v-35h8q-2 6 2 12q4 14 25 15h8q10 0 12 -13l6 -32h-8
q-16 0 -25 18h-6l11 -47h6zM1224 358q-34 0 -44 45l-9 39q-1 14 5 18t10 1v6h-49l2 -6q19 0 22 -19l8 -39q14 -55 58 -55q35 0 39 16.5t0 32.5l-11 45q-7 13 2 17t15 2l-2 6h-60l2 -6q18 0 21 -19l10 -43q4 -20 2 -30.5t-21 -10.5zM1069 356q-2 0 -9 3t-9 18l-15 65
q-3 19 17 19l-2 6h-29l-59 -86l-11 61q-3 19 15 19l-2 6h-43l2 -6q12 0 18 -19l16 -92l7 -2l61 90l12 -61q3 -21 -12 -21l2 -6h43zM762 467q-18 0 -34.5 -11.5t-16.5 -39.5t22.5 -47t48.5 -19h66l-2 8q-16 -8 -21 19l-16 63q-6 18 16 21l-2 6h-61zM508 436q0 -25 39 -30
l-19 -33q-8 -17 -28 -17l2 -6h39l24 47q2 6 10 6l7 -30q2 -9 -4 -13t-11 -4l2 -6h60l-2 6q-17 0 -21 17l-14 71q-2 10 4 14t10 3l-2 6h-55q-41 0 -41 -31zM1694 272h-1403v-12h1403v12zM1333 162q10 0 13 -12v-58h6l51 58v-41q0 -3 -4 -7t-6 -4v-4h28v4q-12 0 -12 11v41
q0 6 12 12v4h-20l-49 -53v37q0 12 12 12v4h-31v-4zM1251 117q0 12 13 12h8v-23q0 -6 -8 -6h-9q-8 0 -14 6t-6 13l-4 -2l4 -23h61v4q-4 -2 -7 -1t-3 12v43q0 6 4 10h6v4h-59l-4 -21l4 -2q0 5 4 11t14 6h9q8 0 8 -6v-21h-8q-13 0 -13 10h-4v-26h4zM1139 133q8 17 20 29v4h-53
l2 -4q2 0 14 -12l6 -11l-14 -26l-16 37q-4 6 -1 9t5 3v4h-27v-4q6 0 12 -12l27 -56h2q2 -2 2 0l17 33l18 -33h2l25 56q2 4 5 6t5 4t4 2v4h-31v-4q7 0 4 -10l-18 -39zM963 98q-11 0 -11 13v16l17 25q2 4 5 5t5 3t4 2v4h-31v-4q9 0 2 -10l-12 -19l-12 19q-4 4 -1 7t7 3v4h-31
v-4q5 0 17 -10l16 -25v-16q0 -5 -4 -9t-6 -4v-4h35v4zM870 141.5q0 26.5 -41 26.5t-41 -26.5t10.5 -38t31 -11.5t30.5 11.5t10 38zM735 150q0 12 10 12v4h-36q-27 0 -27 -19q0 -10 18 -18l-14 -20q-4 -4 -7 -5.5t-5 -3.5l-4 -2v-4h22l15 25q6 8 14 8v-18q0 -4 -2 -5.5
t-4 -3.5t-4 -2v-4h34v4q-10 0 -10 11v41zM608 111q0 -13 -12 -13v-4h37v4q-12 0 -12 13v41q0 10 12 10v4h-37v-4q2 0 6 -2q6 -6 6 -8v-19q-4 0 -8 4l-16 17q-6 2 -3 5t5 3v4h-29v-4q6 0 9 -3t7 -5l21 -19l-27 -26q-3 -3 -7 -6t-7 -5v-4h35v4q-10 0 -4 11l16 16q4 4 8 4v-18z
M1219 -182q22 0 22 14t-22 12v-26zM1075 -167q0 15 -22 11v-24q22 -2 22 13zM784 -182q23 0 23 14t-23 12v-26zM1145 -164l-10 -24h20zM1615.5 -205.5q22.5 0.5 22.5 26.5t-22.5 25.5t-22.5 -26.5t22.5 -25.5zM880.5 -205.5q22.5 0.5 22.5 26.5t-22.5 25.5t-22.5 -26.5
t22.5 -25.5zM350 1122q-16 0 -23.5 10.5t-7.5 20.5q0 18 16.5 18t18.5 -10l6 -39h-10zM1137 1129q0 5 9 5t13 -1q-6 -8 -14 -8.5t-8 4.5zM535 1129q0 5 9 5t13 -1q-6 -8 -14 -8.5t-8 4.5zM1401 1099q-1 -30 -21 -30t-36.5 23.5t-16.5 53.5q1 30 21 30t36.5 -23.5t16.5 -53.5
zM780 786q-27 0 -26.5 22.5t26.5 22.5h23v-45h-23zM563 410q-16 0 -23.5 10t-7.5 20q0 18 16.5 18.5t18.5 -9.5l6 -39h-10zM1466 386q0 -30 -20 -30t-36.5 23.5t-16.5 53.5t20 30t36.5 -23.5t16.5 -53.5zM786 358q-23 0 -38 20.5t-15 50.5t29 30h12q6 -2 7 -3t5 -12l19 -71
q0 -14 -8 -15h-11zM1132 162q9 0 1 -19q-10 19 -1 19zM721 131h-6q-16 0 -17 16q0 13 12 13t11 -8v-21zM829.5 164q24.5 0 24.5 -34t-24 -34t-25 34q0 34 24.5 34z" />
  </font>
</defs></svg>
